state,pollster,start_date,end_date,biden,trump,leading_candidate
Kansas,Public Policy Polling,8/5/20,8/6/20,43.0,50.0,Trump
US,Harris Insights & Analytics,8/2/20,8/5/20,43.0,40.0,Biden
Texas,Trafalgar Group,8/1/20,8/5/20,43.2,49.2,Trump
US,Research Co.,8/3/20,8/4/20,48.0,38.0,Biden
US,Ipsos,8/3/20,8/4/20,55.33,44.33,Biden
US,YouGov,8/2/20,8/4/20,49.0,40.0,Biden
US,Rasmussen Reports/Pulse Opinion Research,7/29/20,8/4/20,48.0,45.0,Biden
Iowa,Monmouth University,7/30/20,8/3/20,46.25,47.75,Trump
Kentucky,Quinnipiac University,7/30/20,8/3/20,41.0,50.0,Trump
Maine,Quinnipiac University,7/30/20,8/3/20,52.0,37.0,Biden
Maine CD-1,Quinnipiac University,7/30/20,8/3/20,61.0,30.0,Biden
Maine CD-2,Quinnipiac University,7/30/20,8/3/20,44.0,45.0,Trump
South Carolina,Quinnipiac University,7/30/20,8/3/20,42.0,47.0,Trump
Montana,Emerson College,7/31/20,8/2/20,45.51,54.49,Trump
US,Morning Consult,7/31/20,8/2/20,51.0,42.0,Biden
Alabama,Morning Consult,7/24/20,8/2/20,36.0,58.0,Trump
Kentucky,Morning Consult,7/24/20,8/2/20,35.0,58.5,Trump
South Carolina,Morning Consult,7/24/20,8/2/20,44.0,49.0,Trump
Texas,Morning Consult,7/24/20,8/2/20,47.0,46.0,Biden
Indiana,Morning Consult,7/24/20,8/2/20,38.0,55.0,Trump
Arizona,Data for Progress,7/24/20,8/2/20,45.67,43.33,Biden
Iowa,Data for Progress,7/24/20,8/2/20,43.0,44.67,Trump
Maine,Data for Progress,7/24/20,8/2/20,50.33,42.33,Biden
North Carolina,Data for Progress,7/24/20,8/2/20,47.0,44.33,Biden
US,Morning Consult,7/30/20,8/1/20,50.0,43.0,Biden
Utah,RMG Research,7/27/20,8/1/20,31.0,50.0,Trump
Iowa,David Binder Research,7/30/20,7/31/20,49.0,43.0,Biden
Michigan,David Binder Research,7/30/20,7/31/20,51.0,41.0,Biden
Minnesota,David Binder Research,7/30/20,7/31/20,54.0,36.0,Biden
Wisconsin,David Binder Research,7/30/20,7/31/20,53.0,42.0,Biden
US,Morning Consult,7/29/20,7/31/20,50.0,43.0,Biden
North Carolina,YouGov,7/28/20,7/31/20,48.0,44.0,Biden
Georgia,YouGov,7/28/20,7/31/20,46.0,45.0,Biden
US,Emerson College,7/29/20,7/30/20,53.25,46.75,Biden
Oklahoma,DFM Research,7/29/20,7/30/20,36.0,56.0,Trump
US,YouGov,7/28/20,7/30/20,49.0,40.0,Biden
US,Morning Consult,7/28/20,7/30/20,50.0,43.0,Biden
Hawaii,MRG Research,7/27/20,7/30/20,56.0,29.0,Biden
Iowa,RMG Research,7/27/20,7/30/20,40.0,41.0,Trump
Michigan,EPIC-MRA,7/25/20,7/30/20,51.0,40.0,Biden
Michigan,Public Policy Polling,7/28/20,7/29/20,49.0,43.0,Biden
US,Morning Consult,7/27/20,7/29/20,50.0,43.0,Biden
Kentucky,Bluegrass Voters Coalition,7/25/20,7/29/20,45.0,52.0,Trump
US,Data for Progress,7/28/20,7/28/20,51.54,42.53,Biden
US,Ipsos,7/27/20,7/28/20,53.67,41.33,Biden
US,YouGov,7/26/20,7/28/20,49.0,40.0,Biden
US,Morning Consult,7/26/20,7/28/20,51.0,42.0,Biden
US,IBD/TIPP,7/25/20,7/28/20,48.0,41.0,Biden
US,Optimus,7/24/20,7/28/20,44.67,37.17,Biden
US,Rasmussen Reports/Pulse Opinion Research,7/22/20,7/28/20,48.0,42.0,Biden
New Hampshire,University of New Hampshire,7/16/20,7/28/20,53.0,40.0,Biden
US,Morning Consult,7/25/20,7/27/20,51.0,42.0,Biden
Georgia,Monmouth University,7/23/20,7/27/20,46.75,48.0,Trump
US,Fox News/Beacon Research/Shaw & Co. Research,7/23/20,7/27/20,48.0,41.0,Biden
Washington,SurveyUSA,7/22/20,7/27/20,62.0,28.0,Biden
Wisconsin,Hodas & Associates,7/22/20,7/27/20,52.05,37.95,Biden
California,"University of California- Berkeley",7/21/20,7/27/20,67.0,28.0,Biden
US,Morning Consult,7/24/20,7/26/20,51.0,43.0,Biden
US,Change Research,7/24/20,7/26/20,51.0,42.0,Biden
Arizona,Change Research,7/24/20,7/26/20,47.0,45.0,Biden
Florida,Change Research,7/24/20,7/26/20,48.0,45.0,Biden
Michigan,Change Research,7/24/20,7/26/20,46.0,42.0,Biden
North Carolina,Change Research,7/24/20,7/26/20,49.0,46.0,Biden
Pennsylvania,Change Research,7/24/20,7/26/20,48.0,46.0,Biden
Wisconsin,Change Research,7/24/20,7/26/20,48.0,43.0,Biden
Pennsylvania,Franklin & Marshall College,7/20/20,7/26/20,50.0,41.0,Biden
Arizona,Morning Consult,7/17/20,7/26/20,49.0,42.0,Biden
Colorado,Morning Consult,7/17/20,7/26/20,52.0,39.0,Biden
Florida,Morning Consult,7/17/20,7/26/20,49.0,46.0,Biden
Georgia,Morning Consult,7/17/20,7/26/20,47.0,46.0,Biden
Michigan,Morning Consult,7/17/20,7/26/20,52.0,42.0,Biden
Minnesota,Morning Consult,7/17/20,7/26/20,47.0,44.0,Biden
North Carolina,Morning Consult,7/17/20,7/26/20,47.0,47.0,Tie
Ohio,Morning Consult,7/17/20,7/26/20,45.0,48.0,Trump
Pennsylvania,Morning Consult,7/17/20,7/26/20,50.0,42.0,Biden
Texas,Morning Consult,7/17/20,7/26/20,47.0,45.0,Biden
Virginia,Morning Consult,7/17/20,7/26/20,52.0,41.0,Biden
Wisconsin,Morning Consult,7/17/20,7/26/20,50.0,43.0,Biden
US,RMG Research,7/23/20,7/25/20,45.0,37.0,Biden
Minnesota,Trafalgar Group,7/23/20,7/25/20,49.1,44.1,Biden
US,Morning Consult,7/23/20,7/25/20,50.0,42.0,Biden
Alaska,Public Policy Polling,7/23/20,7/24/20,44.0,50.0,Trump
Colorado,Public Policy Polling,7/23/20,7/24/20,54.0,41.0,Biden
Georgia,Public Policy Polling,7/23/20,7/24/20,46.0,45.0,Biden
Iowa,Public Policy Polling,7/23/20,7/24/20,47.0,48.0,Trump
Maine,Public Policy Polling,7/23/20,7/24/20,53.0,42.0,Biden
Montana,Public Policy Polling,7/23/20,7/24/20,45.0,50.0,Trump
North Carolina,Public Policy Polling,7/23/20,7/24/20,49.0,46.0,Biden
Pennsylvania,Gravis Marketing,7/22/20,7/24/20,48.0,45.0,Biden
US,Morning Consult,7/22/20,7/24/20,51.0,42.0,Biden
North Carolina,Cardinal Point Analytics (CardinalGPS),7/22/20,7/24/20,46.8,48.4,Trump
US,YouGov,7/21/20,7/24/20,51.0,41.0,Biden
Michigan,YouGov,7/21/20,7/24/20,48.0,42.0,Biden
Ohio,YouGov,7/21/20,7/24/20,45.0,46.0,Trump
Michigan,Redfield & Wilton Strategies,7/19/20,7/24/20,49.0,37.0,Biden
Wisconsin,Redfield & Wilton Strategies,7/19/20,7/24/20,45.0,35.0,Biden
Arizona,SSRS,7/18/20,7/24/20,49.0,45.0,Biden
Florida,SSRS,7/18/20,7/24/20,51.0,46.0,Biden
Michigan,SSRS,7/18/20,7/24/20,52.0,40.0,Biden
Maine,Colby College,7/18/20,7/24/20,50.0,38.0,Biden
Maine CD-1,Colby College,7/18/20,7/24/20,55.0,35.0,Biden
Maine CD-2,Colby College,7/18/20,7/24/20,45.0,42.0,Biden
Minnesota,Public Policy Polling,7/22/20,7/23/20,52.0,42.0,Biden
US,Harris Insights & Analytics,7/21/20,7/23/20,55.0,45.0,Biden
US,Morning Consult,7/21/20,7/23/20,51.0,42.0,Biden
US,Zogby Interactive/JZ Analytics,7/21/20,7/23/20,44.0,40.0,Biden
Florida,Zogby Interactive/JZ Analytics,7/21/20,7/23/20,43.0,43.0,Tie
Ohio,Zogby Interactive/JZ Analytics,7/21/20,7/23/20,43.0,41.0,Biden
Pennsylvania,Zogby Interactive/JZ Analytics,7/21/20,7/23/20,44.0,43.0,Biden
North Carolina,Zogby Interactive/JZ Analytics,7/21/20,7/23/20,44.0,40.0,Biden
Florida,Mason-Dixon Polling & Strategy,7/20/20,7/23/20,50.0,46.0,Biden
Arizona,Redfield & Wilton Strategies,7/19/20,7/23/20,46.0,38.0,Biden
Wisconsin,Gravis Marketing,7/22/20,7/22/20,50.0,42.0,Biden
Michigan,Gravis Marketing,7/22/20,7/22/20,51.0,42.0,Biden
US,Morning Consult,7/20/20,7/22/20,51.0,42.0,Biden
US,Echelon Insights,7/17/20,7/22/20,51.0,37.33,Biden
Pennsylvania,Hodas & Associates,7/17/20,7/22/20,50.91,44.84,Biden
Arizona,Marist College,7/14/20,7/22/20,50.0,45.0,Biden
North Carolina,Marist College,7/14/20,7/22/20,51.0,44.0,Biden
US,Data for Progress,7/21/20,7/21/20,49.65,43.75,Biden
US,YouGov,7/19/20,7/21/20,48.0,41.0,Biden
US,Morning Consult,7/19/20,7/21/20,50.0,42.0,Biden
North Carolina,Redfield & Wilton Strategies,7/19/20,7/21/20,43.0,42.0,Biden
Florida,Redfield & Wilton Strategies,7/19/20,7/21/20,48.0,41.0,Biden
Pennsylvania,Redfield & Wilton Strategies,7/19/20,7/21/20,48.0,41.0,Biden
US,Ipsos,7/15/20,7/21/20,45.0,36.67,Biden
US,Rasmussen Reports/Pulse Opinion Research,7/15/20,7/21/20,47.0,45.0,Biden
Michigan,Fox News/Beacon Research/Shaw & Co. Research,7/18/20,7/20/20,49.0,40.0,Biden
Minnesota,Fox News/Beacon Research/Shaw & Co. Research,7/18/20,7/20/20,51.0,38.0,Biden
Pennsylvania,Fox News/Beacon Research/Shaw & Co. Research,7/18/20,7/20/20,50.0,39.0,Biden
US,Morning Consult,7/18/20,7/20/20,50.0,42.0,Biden
US,Harris Insights & Analytics,7/17/20,7/20/20,45.0,38.0,Biden
Massachusetts,MassINC Polling Group,7/17/20,7/20/20,55.0,23.0,Biden
Texas,Quinnipiac University,7/16/20,7/20/20,45.0,44.0,Biden
Texas,Spry Strategies,7/16/20,7/20/20,44.76,49.45,Trump
Florida,Quinnipiac University,7/16/20,7/20/20,51.0,38.0,Biden
US,AP-NORC,7/16/20,7/20/20,46.0,34.0,Biden
Pennsylvania,Spry Strategies,7/15/20,7/20/20,47.02,47.76,Trump
Wisconsin,Spry Strategies,7/15/20,7/20/20,46.3,45.37,Biden
South Carolina,ALG Research,7/15/20,7/20/20,45.0,50.0,Trump
US,Morning Consult,7/17/20,7/19/20,51.0,42.0,Biden
US,GQR Research (GQRR),7/15/20,7/19/20,55.0,44.0,Biden
US,Kaiser Family Foundation,7/14/20,7/19/20,47.0,38.0,Biden
US,Morning Consult,7/13/20,7/19/20,47.0,40.0,Biden
South Carolina,brilliant corners Research & Strategies,7/13/20,7/19/20,43.0,50.0,Trump
Virginia,Virginia Commonwealth University,7/11/20,7/19/20,50.0,39.0,Biden
Arizona,Public Policy Polling,7/17/20,7/18/20,49.0,45.0,Biden
US,Morning Consult,7/16/20,7/18/20,50.0,42.0,Biden
Georgia,Trafalgar Group,7/15/20,7/18/20,43.15,49.9,Trump
South Carolina,Gravis Marketing,7/17/20,7/17/20,46.0,50.0,Trump
US,Morning Consult,7/15/20,7/17/20,50.0,42.0,Biden
Wisconsin,Global Strategy Group,7/11/20,7/17/20,51.0,42.0,Biden
Ohio,Rasmussen Reports/Pulse Opinion Research,7/15/20,7/16/20,50.0,46.0,Biden
Pennsylvania,Rasmussen Reports/Pulse Opinion Research,7/15/20,7/16/20,51.0,46.0,Biden
US,Morning Consult,7/14/20,7/16/20,50.0,42.0,Biden
Michigan,Hodas & Associates,7/13/20,7/16/20,52.75,40.75,Biden
North Carolina,Spry Strategies,7/12/20,7/16/20,45.52,48.96,Trump
Arizona,Spry Strategies,7/11/20,7/16/20,49.43,44.59,Biden
Georgia,Spry Strategies,7/11/20,7/16/20,45.74,48.79,Trump
Iowa,Spry Strategies,7/11/20,7/16/20,47.5,45.93,Biden
Kentucky,Spry Strategies,7/11/20,7/16/20,33.57,60.29,Trump
Michigan,Spry Strategies,7/11/20,7/16/20,45.36,49.58,Trump
Montana,Spry Strategies,7/11/20,7/16/20,41.9,51.69,Trump
North Carolina,Cardinal Point Analytics (CardinalGPS),7/13/20,7/15/20,47.7,48.6,Trump
US,Morning Consult,7/13/20,7/15/20,50.0,42.0,Biden
US,ABC News/The Washington Post,7/12/20,7/15/20,54.25,41.5,Biden
US,Fox News/Beacon Research/Shaw & Co. Research,7/12/20,7/15/20,49.0,41.0,Biden
Georgia,Garin-Hart-Yang Research Group,7/9/20,7/15/20,47.0,43.0,Biden
Ohio,Center for Marketing and Opinion Research/University of Akron,6/24/20,7/15/20,45.9,41.7,Biden
US,Ipsos,7/13/20,7/14/20,45.67,36.67,Biden
Florida,St. Pete Polls,7/13/20,7/14/20,50.4,44.4,Biden
US,YouGov,7/12/20,7/14/20,49.0,40.0,Biden
US,Morning Consult,7/12/20,7/14/20,50.0,42.0,Biden
US,YouGov,7/11/20,7/14/20,47.0,39.0,Biden
US,Rasmussen Reports/Pulse Opinion Research,7/8/20,7/14/20,47.0,44.0,Biden
Florida,Gravis Marketing,7/13/20,7/13/20,53.0,43.0,Biden
Montana,Civiqs,7/11/20,7/13/20,45.0,49.0,Trump
US,Morning Consult,7/11/20,7/13/20,50.0,42.0,Biden
Pennsylvania,Monmouth University,7/9/20,7/13/20,52.0,42.25,Biden
US,Quinnipiac University,7/9/20,7/13/20,52.0,37.0,Biden
US,Morning Consult,7/6/20,7/13/20,47.0,39.0,Biden
US,Change Research,7/10/20,7/12/20,51.0,41.0,Biden
Arizona,Change Research,7/10/20,7/12/20,51.0,45.0,Biden
Florida,Change Research,7/10/20,7/12/20,50.0,43.0,Biden
Michigan,Change Research,7/10/20,7/12/20,48.0,42.0,Biden
North Carolina,Change Research,7/10/20,7/12/20,47.0,46.0,Biden
Pennsylvania,Change Research,7/10/20,7/12/20,50.0,42.0,Biden
Wisconsin,Change Research,7/10/20,7/12/20,48.0,42.0,Biden
US,Morning Consult,7/10/20,7/12/20,51.0,42.0,Biden
US,NBC News/The Wall Street Journal,7/9/20,7/12/20,51.0,40.0,Biden
Kentucky,Garin-Hart-Yang Research Group,7/7/20,7/12/20,41.0,53.0,Trump
New Jersey,DKC Analytics,7/7/20,7/12/20,51.2,33.4,Biden
US,RMG Research,7/9/20,7/11/20,46.0,39.0,Biden
US,Morning Consult,7/9/20,7/11/20,50.0,42.0,Biden
Montana,Public Policy Polling,7/9/20,7/10/20,42.0,51.0,Trump
Michigan,Public Policy Polling,7/9/20,7/10/20,51.0,44.0,Biden
US,Morning Consult,7/8/20,7/10/20,50.0,42.0,Biden
Arizona,YouGov,7/7/20,7/10/20,46.0,46.0,Tie
Florida,YouGov,7/7/20,7/10/20,48.0,42.0,Biden
Texas,YouGov,7/7/20,7/10/20,45.0,46.0,Trump
US,Redfield & Wilton Strategies,7/9/20,7/9/20,48.0,39.67,Biden
US,Morning Consult,7/7/20,7/9/20,50.0,42.0,Biden
Alabama,Auburn University at Montgomery,7/2/20,7/9/20,40.6,55.0,Trump
US,John Zogby Strategies/EMI Research Solutions,7/8/20,7/8/20,49.0,42.0,Biden
Alaska,Public Policy Polling,7/7/20,7/8/20,45.0,48.0,Trump
North Carolina,Public Policy Polling,7/7/20,7/8/20,50.0,46.0,Biden
US,Morning Consult,7/6/20,7/8/20,51.0,42.0,Biden
US,UCLA Nationscape,7/2/20,7/8/20,49.0,41.0,Biden
US,Data for Progress,7/7/20,7/7/20,51.99,41.8,Biden
Texas,Gravis Marketing,7/7/20,7/7/20,44.0,46.0,Trump
US,Ipsos,7/6/20,7/7/20,42.0,36.0,Biden
Arizona,OH Predictive Insights,7/6/20,7/7/20,49.0,44.0,Biden
US,Rasmussen Reports/Pulse Opinion Research,7/5/20,7/7/20,50.0,40.0,Biden
US,YouGov,7/5/20,7/7/20,49.0,40.0,Biden
US,Morning Consult,7/5/20,7/7/20,50.0,42.0,Biden
Texas,University of Texas at Tyler,6/29/20,7/7/20,47.33,42.33,Biden
Alaska,Alaska Survey Research,6/23/20,7/7/20,47.8,48.9,Trump
US,Morning Consult,7/4/20,7/6/20,51.0,42.0,Biden
US,Morning Consult,7/3/20,7/5/20,50.0,42.0,Biden
Nebraska CD-2,GQR Research (GQRR),6/30/20,7/5/20,51.0,44.0,Biden
US,Morning Consult,6/29/20,7/5/20,48.0,39.0,Biden
US,Harris Insights & Analytics,7/3/20,7/4/20,43.0,39.0,Biden
US,Morning Consult,7/2/20,7/4/20,50.0,43.0,Biden
Maine,Public Policy Polling,7/2/20,7/3/20,53.0,42.0,Biden
US,Morning Consult,7/1/20,7/3/20,50.0,42.0,Biden
Georgia,Gravis Marketing,7/2/20,7/2/20,45.0,48.0,Trump
US,Research Co.,7/1/20,7/2/20,49.0,40.0,Biden
US,Morning Consult,6/30/20,7/2/20,51.0,42.0,Biden
Florida,Trafalgar Group,6/29/20,7/2/20,45.95,45.97,Trump
Pennsylvania,Trafalgar Group,6/29/20,7/2/20,48.0,42.85,Biden
US,YouGov,6/29/20,7/1/20,45.0,40.0,Biden
US,Morning Consult,6/29/20,7/1/20,51.0,42.0,Biden
Missouri,YouGov,6/23/20,7/1/20,42.75,49.8,Trump
US,Global Strategy Group/Data for Progress,6/23/20,7/1/20,50.0,39.0,Biden
Colorado,Public Policy Polling,6/29/20,6/30/20,56.0,39.0,Biden
US,Ipsos,6/29/20,6/30/20,45.0,36.67,Biden
US,YouGov,6/28/20,6/30/20,49.0,40.0,Biden
US,Morning Consult,6/28/20,6/30/20,51.0,42.0,Biden
US,IBD/TIPP,6/27/20,6/30/20,48.0,40.0,Biden
US,Monmouth University,6/26/20,6/30/20,53.0,41.0,Biden
Arizona,Data Orbital,6/27/20,6/29/20,47.05,45.2,Biden
US,Morning Consult,6/27/20,6/29/20,50.0,43.0,Biden
US,Suffolk University,6/25/20,6/29/20,49.55,39.05,Biden
Texas,YouGov,6/19/20,6/29/20,44.0,48.0,Trump
US,Change Research,6/26/20,6/28/20,48.0,40.5,Biden
Arizona,Change Research,6/26/20,6/28/20,51.0,44.0,Biden
Florida,Change Research,6/26/20,6/28/20,50.0,45.0,Biden
Michigan,Change Research,6/26/20,6/28/20,48.0,43.0,Biden
North Carolina,Change Research,6/26/20,6/28/20,51.0,44.0,Biden
Pennsylvania,Change Research,6/26/20,6/28/20,50.0,44.0,Biden
Wisconsin,Change Research,6/26/20,6/28/20,51.0,43.0,Biden
US,Morning Consult,6/26/20,6/28/20,51.0,42.0,Biden
US,Morning Consult,6/22/20,6/28/20,47.0,40.0,Biden
US,Garin-Hart-Yang Research Group,6/22/20,6/28/20,55.0,41.0,Biden
US,PureSpectrum,6/12/20,6/28/20,47.0,37.0,Biden
Arizona,Gravis Marketing,6/27/20,6/27/20,45.0,49.0,Trump
Michigan,Public Policy Polling,6/26/20,6/27/20,50.0,44.0,Biden
US,RMG Research,6/25/20,6/27/20,47.0,39.0,Biden
US,Morning Consult,6/25/20,6/27/20,50.0,43.0,Biden
US,Optimus,6/23/20,6/27/20,42.85,35.75,Biden
Georgia,Public Policy Polling,6/25/20,6/26/20,49.0,45.0,Biden
US,Public Policy Polling,6/25/20,6/26/20,53.0,42.0,Biden
US,Morning Consult,6/24/20,6/26/20,50.0,42.0,Biden
Montana,University of Montana,6/17/20,6/26/20,37.95,52.15,Trump
US,YouGov,6/24/20,6/25/20,47.0,39.0,Biden
Texas,Public Policy Polling,6/24/20,6/25/20,48.0,46.0,Biden
Wisconsin,Trafalgar Group,6/23/20,6/25/20,44.8,45.75,Trump
New York,Siena College,6/23/20,6/25/20,57.0,32.0,Biden
US,Morning Consult,6/23/20,6/25/20,50.0,42.0,Biden
North Carolina,East Carolina University,6/22/20,6/25/20,45.05,43.9,Biden
US,Marist College,6/22/20,6/24/20,52.0,44.0,Biden
US,Morning Consult,6/22/20,6/24/20,50.0,42.0,Biden
US,Opinium,6/19/20,6/24/20,52.0,40.0,Biden
US,Data for Progress,6/23/20,6/23/20,50.89,43.45,Biden
North Carolina,Public Policy Polling,6/22/20,6/23/20,48.0,46.0,Biden
US,Ipsos,6/22/20,6/23/20,45.67,36.0,Biden
US,Harris Insights & Analytics,6/22/20,6/23/20,43.0,39.0,Biden
US,YouGov,6/21/20,6/23/20,49.0,41.0,Biden
US,Morning Consult,6/21/20,6/23/20,50.0,42.0,Biden
Florida,Fox News/Beacon Research/Shaw & Co. Research,6/20/20,6/23/20,49.0,40.0,Biden
Georgia,Fox News/Beacon Research/Shaw & Co. Research,6/20/20,6/23/20,47.0,45.0,Biden
North Carolina,Fox News/Beacon Research/Shaw & Co. Research,6/20/20,6/23/20,47.0,45.0,Biden
Texas,Fox News/Beacon Research/Shaw & Co. Research,6/20/20,6/23/20,45.0,44.0,Biden
Pennsylvania,Susquehanna Polling & Research Inc.,6/15/20,6/23/20,46.0,41.0,Biden
US,Morning Consult,6/20/20,6/22/20,50.0,42.0,Biden
US,NBC News/The Wall Street Journal,6/19/20,6/22/20,47.0,38.0,Biden
Ohio,Quinnipiac University,6/18/20,6/22/20,46.0,45.0,Biden
New Hampshire,University of New Hampshire,6/18/20,6/22/20,52.0,39.0,Biden
US,Siena College/The New York Times Upshot,6/17/20,6/22/20,49.7,36.3,Biden
Missouri,Garin-Hart-Yang Research Group,6/16/20,6/22/20,48.0,46.0,Biden
US,Pew Research Center,6/16/20,6/22/20,54.0,44.0,Biden
US,Morning Consult,6/19/20,6/21/20,50.0,42.0,Biden
US,Morning Consult,6/15/20,6/21/20,47.0,39.0,Biden
US,Public Policy Polling,6/19/20,6/20/20,52.0,43.0,Biden
US,Morning Consult,6/18/20,6/20/20,50.0,42.0,Biden
Michigan,Hodas & Associates,6/17/20,6/20/20,55.75,37.75,Biden
Minnesota,Gravis Marketing,6/19/20,6/19/20,58.0,42.0,Biden
Texas,Public Policy Polling,6/18/20,6/19/20,46.0,48.0,Trump
US,Morning Consult,6/17/20,6/19/20,50.0,42.0,Biden
Wisconsin,Redfield & Wilton Strategies,6/14/20,6/19/20,45.0,36.0,Biden
US,Harris Insights & Analytics,6/17/20,6/18/20,56.0,44.0,Biden
Michigan,Trafalgar Group,6/16/20,6/18/20,46.1,45.15,Biden
US,Morning Consult,6/16/20,6/18/20,50.0,42.0,Biden
Wisconsin,Marquette University Law School,6/14/20,6/18/20,51.67,43.33,Biden
Florida,Siena College/The New York Times Upshot,6/8/20,6/18/20,47.0,41.0,Biden
North Carolina,Siena College/The New York Times Upshot,6/8/20,6/18/20,49.0,40.0,Biden
North Carolina,Gravis Marketing,6/17/20,6/17/20,43.0,46.0,Trump
US,Morning Consult,6/15/20,6/17/20,51.0,42.0,Biden
Arizona,Redfield & Wilton Strategies,6/14/20,6/17/20,43.0,39.0,Biden
North Carolina,Redfield & Wilton Strategies,6/14/20,6/17/20,46.0,40.0,Biden
Michigan,Siena College/The New York Times Upshot,6/8/20,6/17/20,47.0,36.0,Biden
US,YouGov,6/14/20,6/16/20,50.0,41.0,Biden
Pennsylvania,Redfield & Wilton Strategies,6/14/20,6/16/20,49.0,39.0,Biden
Michigan,Redfield & Wilton Strategies,6/14/20,6/16/20,47.0,36.0,Biden
US,Morning Consult,6/14/20,6/16/20,51.0,42.0,Biden
US,Fox News/Beacon Research/Shaw & Co. Research,6/13/20,6/16/20,50.0,38.0,Biden
New Hampshire,Saint Anselm College,6/13/20,6/16/20,49.0,42.0,Biden
US,SurveyMonkey,6/12/20,6/16/20,53.0,43.0,Biden
US,Echelon Insights,6/12/20,6/16/20,50.0,42.0,Biden
Wisconsin,Hodas & Associates,6/12/20,6/16/20,55.16,38.84,Biden
Michigan,TargetPoint,6/11/20,6/16/20,49.0,33.0,Biden
US,Ipsos,6/10/20,6/16/20,46.33,34.33,Biden
US,Optimus,6/9/20,6/16/20,45.98,40.4,Biden
Arizona,Siena College/The New York Times Upshot,6/8/20,6/16/20,48.0,41.0,Biden
Pennsylvania,Siena College/The New York Times Upshot,6/8/20,6/16/20,50.0,40.0,Biden
Florida,Redfield & Wilton Strategies,6/14/20,6/15/20,45.0,41.0,Biden
Arizona,Civiqs,6/13/20,6/15/20,49.0,45.0,Biden
Kentucky,Civiqs,6/13/20,6/15/20,37.0,57.0,Trump
US,Morning Consult,6/13/20,6/15/20,51.0,42.0,Biden
US,Quinnipiac University,6/11/20,6/15/20,49.0,41.0,Biden
Wisconsin,Siena College/The New York Times Upshot,6/8/20,6/15/20,49.0,38.0,Biden
US,Change Research,6/12/20,6/14/20,51.0,41.0,Biden
Florida,Change Research,6/12/20,6/14/20,50.0,43.0,Biden
Pennsylvania,Change Research,6/12/20,6/14/20,49.0,46.0,Biden
Wisconsin,Change Research,6/12/20,6/14/20,48.0,44.0,Biden
Michigan,Change Research,6/12/20,6/14/20,47.0,45.0,Biden
North Carolina,Change Research,6/12/20,6/14/20,47.0,45.0,Biden
Arizona,Change Research,6/12/20,6/14/20,45.0,44.0,Biden
US,Morning Consult,6/12/20,6/14/20,50.0,42.0,Biden
US,Morning Consult,6/8/20,6/14/20,48.0,39.0,Biden
US,Kaiser Family Foundation,6/8/20,6/14/20,51.0,38.0,Biden
New Mexico,Public Policy Polling,6/12/20,6/13/20,53.0,39.0,Biden
Georgia,Public Policy Polling,6/12/20,6/13/20,48.0,46.0,Biden
US,Abacus Data,6/11/20,6/13/20,50.0,38.0,Biden
US,RMG Research,6/11/20,6/13/20,48.0,36.0,Biden
US,Morning Consult,6/11/20,6/13/20,50.0,42.0,Biden
US,Optimus,6/6/20,6/13/20,47.38,38.3,Biden
US,Morning Consult,6/10/20,6/12/20,50.0,42.0,Biden
Michigan,IBD/TIPP,6/9/20,6/12/20,50.5,37.5,Biden
Missouri,Remington Research Group,6/10/20,6/11/20,43.0,51.0,Trump
Florida,IBD/TIPP,6/9/20,6/11/20,50.5,40.0,Biden
US,Morning Consult,6/9/20,6/11/20,50.0,42.0,Biden
Pennsylvania,Hodas & Associates,6/8/20,6/11/20,53.91,42.09,Biden
US,Climate Nexus,6/6/20,6/11/20,48.0,41.0,Biden
US,YouGov,6/9/20,6/10/20,49.0,40.0,Biden
Arkansas,Hendrix College,6/9/20,6/10/20,45.0,47.0,Trump
US,Morning Consult,6/8/20,6/10/20,50.0,42.0,Biden
Iowa,Selzer & Co.,6/7/20,6/10/20,43.0,44.0,Trump
US,UCLA Nationscape,5/28/20,6/10/20,50.0,39.0,Biden
US,Data for Progress,6/9/20,6/9/20,52.62,41.17,Biden
US,Ipsos,6/8/20,6/9/20,45.0,37.0,Biden
US,Redfield & Wilton Strategies,6/8/20,6/9/20,50.0,37.0,Biden
US,YouGov,6/7/20,6/9/20,49.0,41.0,Biden
US,Morning Consult,6/7/20,6/9/20,51.0,42.0,Biden
US,Optimus,6/2/20,6/9/20,47.95,37.08,Biden
Iowa,Civiqs,6/6/20,6/8/20,46.0,46.0,Tie
US,Morning Consult,6/6/20,6/8/20,51.0,42.0,Biden
US,MSR Group,6/7/20,6/7/20,46.15,38.95,Biden
US,Morning Consult,6/5/20,6/7/20,50.0,43.0,Biden
US,Morning Consult,6/1/20,6/7/20,47.0,39.0,Biden
Michigan,Kiaer Research,5/31/20,6/7/20,50.0,35.0,Biden
US,RMG Research,6/4/20,6/6/20,47.0,37.0,Biden
US,Morning Consult,6/4/20,6/6/20,50.0,42.0,Biden
US,Garin-Hart-Yang Research Group,6/3/20,6/6/20,53.0,41.0,Biden
US,Optimus,5/30/20,6/6/20,49.33,38.83,Biden
US,Morning Consult,6/3/20,6/5/20,49.0,43.0,Biden
US,SSRS,6/2/20,6/5/20,55.0,41.0,Biden
US,AP-NORC,5/21/20,6/5/20,40.0,32.0,Biden
Iowa,Public Policy Polling,6/3/20,6/4/20,47.0,48.0,Trump
Texas,Public Policy Polling,6/3/20,6/4/20,48.0,48.0,Tie
Oklahoma,Amber Integrated,6/3/20,6/4/20,36.0,55.0,Trump
US,Whitman Insight Strategies,6/2/20,6/4/20,53.0,43.0,Biden
Mississippi,Chism Strategies,6/2/20,6/4/20,40.6,50.4,Trump
US,Morning Consult,6/2/20,6/4/20,49.0,43.0,Biden
US,Harris Insights & Analytics,6/1/20,6/4/20,47.0,37.0,Biden
Michigan,EPIC-MRA,5/31/20,6/4/20,55.0,39.0,Biden
US,Emerson College,6/2/20,6/3/20,52.7,47.3,Biden
North Carolina,Public Policy Polling,6/2/20,6/3/20,49.0,45.0,Biden
US,Marist College,6/2/20,6/3/20,50.0,43.0,Biden
US,Civiqs,6/1/20,6/3/20,47.0,44.0,Biden
US,Morning Consult,6/1/20,6/3/20,49.0,43.0,Biden
US,IBD/TIPP,5/31/20,6/3/20,45.0,42.0,Biden
Michigan,EPIC-MRA,5/30/20,6/3/20,53.0,41.0,Biden
US,Ipsos,6/1/20,6/2/20,44.5,36.0,Biden
US,Research Co.,6/1/20,6/2/20,46.0,41.0,Biden
US,Zogby Interactive/JZ Analytics,6/1/20,6/2/20,46.0,46.0,Tie
US,YouGov,5/31/20,6/2/20,47.0,40.0,Biden
US,Morning Consult,5/31/20,6/2/20,49.0,43.0,Biden
Arizona,Fox News/Beacon Research/Shaw & Co. Research,5/30/20,6/2/20,46.0,42.0,Biden
Ohio,Fox News/Beacon Research/Shaw & Co. Research,5/30/20,6/2/20,45.0,43.0,Biden
Wisconsin,Fox News/Beacon Research/Shaw & Co. Research,5/30/20,6/2/20,49.0,40.0,Biden
US,NBC News/The Wall Street Journal,5/28/20,6/2/20,49.0,42.0,Biden
US,Optimus,5/26/20,6/2/20,48.37,41.23,Biden
US,Morning Consult,5/31/20,6/1/20,49.33,38.33,Biden
Kansas,Civiqs,5/30/20,6/1/20,40.0,52.0,Trump
US,Morning Consult,5/30/20,6/1/20,48.0,44.0,Biden
US,YouGov,5/29/20,6/1/20,47.0,43.0,Biden
US,Monmouth University,5/28/20,6/1/20,52.0,41.0,Biden
Texas,Quinnipiac University,5/28/20,6/1/20,43.0,44.0,Trump
US,Change Research,5/29/20,5/31/20,48.0,41.0,Biden
Arizona,Change Research,5/29/20,5/31/20,44.0,45.0,Trump
Florida,Change Research,5/29/20,5/31/20,48.0,45.0,Biden
Michigan,Change Research,5/29/20,5/31/20,48.0,46.0,Biden
North Carolina,Change Research,5/29/20,5/31/20,46.0,45.0,Biden
Pennsylvania,Change Research,5/29/20,5/31/20,46.0,50.0,Trump
Wisconsin,Change Research,5/29/20,5/31/20,45.0,45.0,Tie
US,Morning Consult,5/29/20,5/31/20,49.0,44.0,Biden
US,Morning Consult,5/25/20,5/31/20,46.0,41.0,Biden
US,PureSpectrum,5/16/20,5/31/20,46.0,37.0,Biden
US,YouGov,5/29/20,5/30/20,48.0,40.0,Biden
Michigan,Public Policy Polling,5/29/20,5/30/20,50.0,44.0,Biden
US,RMG Research,5/28/20,5/30/20,46.0,39.0,Biden
US,Morning Consult,5/28/20,5/30/20,49.0,44.0,Biden
US,Optimus,5/23/20,5/30/20,48.13,42.5,Biden
Florida,Cygnal,5/18/20,5/30/20,47.0,43.9,Biden
US,Morning Consult,5/27/20,5/29/20,49.0,44.0,Biden
North Carolina,Harper Polling,5/26/20,5/28/20,44.0,47.0,Trump
US,Morning Consult,5/26/20,5/28/20,48.0,44.0,Biden
US,ABC News/The Washington Post,5/25/20,5/28/20,52.33,43.0,Biden
Florida,St. Pete Polls,5/26/20,5/27/20,47.5,46.7,Biden
Missouri,We Ask America,5/26/20,5/27/20,44.0,48.0,Trump
US,Morning Consult,5/25/20,5/27/20,48.0,44.0,Biden
US,TargetSmart/William & Mary,5/21/20,5/27/20,43.0,40.0,Biden
Georgia,TargetSmart/William & Mary,5/21/20,5/27/20,40.0,44.0,Trump
US,Ipsos,5/20/20,5/27/20,43.67,38.33,Biden
US,John Zogby Strategies/EMI Research Solutions,5/26/20,5/26/20,53.0,40.0,Biden
US,Data for Progress,5/26/20,5/26/20,50.48,44.49,Biden
US,Morning Consult,5/24/20,5/26/20,49.0,44.0,Biden
US,YouGov,5/23/20,5/26/20,45.0,42.0,Biden
South Carolina,Civiqs,5/23/20,5/26/20,42.0,52.0,Trump
US,Optimus,5/19/20,5/26/20,48.4,41.67,Biden
California,Public Policy Institute of California,5/17/20,5/26/20,57.0,33.0,Biden
Arizona,Morning Consult,5/17/20,5/26/20,45.0,47.0,Trump
Colorado,Morning Consult,5/17/20,5/26/20,50.0,42.0,Biden
Florida,Morning Consult,5/17/20,5/26/20,47.0,48.0,Trump
Georgia,Morning Consult,5/17/20,5/26/20,47.0,49.0,Trump
Michigan,Morning Consult,5/17/20,5/26/20,50.0,42.0,Biden
Minnesota,Morning Consult,5/17/20,5/26/20,49.0,42.0,Biden
North Carolina,Morning Consult,5/17/20,5/26/20,46.0,49.0,Trump
Ohio,Morning Consult,5/17/20,5/26/20,42.0,50.0,Trump
Pennsylvania,Morning Consult,5/17/20,5/26/20,48.0,44.0,Biden
Texas,Morning Consult,5/17/20,5/26/20,43.0,50.0,Trump
Virginia,Morning Consult,5/17/20,5/26/20,52.0,42.0,Biden
Wisconsin,Morning Consult,5/17/20,5/26/20,49.0,44.0,Biden
US,Morning Consult,5/23/20,5/25/20,48.0,45.0,Biden
US,Morning Consult,5/22/20,5/24/20,48.0,44.0,Biden
Kentucky,RMG Research,5/21/20,5/24/20,36.0,53.0,Trump
US,Morning Consult,5/18/20,5/24/20,46.0,41.0,Biden
Indiana,Victoria Research & Consulting,5/21/20,5/23/20,39.0,49.0,Trump
US,Morning Consult,5/21/20,5/23/20,48.0,44.0,Biden
Maryland,Gonzales Research & Marketing Strategies Inc.,5/19/20,5/23/20,59.1,35.3,Biden
US,Optimus,5/16/20,5/23/20,49.73,40.37,Biden
US,Morning Consult,5/20/20,5/22/20,49.0,43.0,Biden
Arizona,HighGround Inc.,5/18/20,5/22/20,47.0,45.15,Biden
Tennessee,SSRS,5/5/20,5/22/20,42.0,51.0,Trump
US,YouGov,5/20/20,5/21/20,46.0,42.0,Biden
US,Morning Consult,5/19/20,5/21/20,49.0,44.0,Biden
New York,Siena College,5/17/20,5/21/20,57.0,32.0,Biden
North Carolina,Neighborhood Research and Media,5/12/20,5/21/20,42.0,42.0,Tie
Washington,Public Policy Polling,5/19/20,5/20/20,59.0,37.0,Biden
US,Echelon Insights,5/18/20,5/20/20,51.0,42.0,Biden
Minnesota,Mason-Dixon Polling & Strategy,5/18/20,5/20/20,49.0,44.0,Biden
US,Morning Consult,5/18/20,5/20/20,48.0,44.0,Biden
US,Fox News/Beacon Research/Shaw & Co. Research,5/17/20,5/20/20,48.0,40.0,Biden
US,Data for Progress,5/19/20,5/19/20,51.49,42.35,Biden
US,Rasmussen Reports/Pulse Opinion Research,5/18/20,5/19/20,48.0,43.0,Biden
US,Ipsos,5/18/20,5/19/20,45.67,37.0,Biden
California,SurveyUSA,5/18/20,5/19/20,58.0,30.0,Biden
Michigan,Public Policy Polling,5/18/20,5/19/20,51.0,45.0,Biden
US,YouGov,5/17/20,5/19/20,47.0,42.0,Biden
US,Morning Consult,5/17/20,5/19/20,48.0,44.0,Biden
Washington,SurveyUSA,5/16/20,5/19/20,57.0,31.0,Biden
US,Optimus,5/12/20,5/19/20,46.65,37.1,Biden
Georgia,Civiqs,5/16/20,5/18/20,48.0,47.0,Biden
US,Morning Consult,5/16/20,5/18/20,49.0,44.0,Biden
US,Quinnipiac University,5/14/20,5/18/20,50.0,39.0,Biden
Alabama,FM3 Research,5/14/20,5/18/20,39.0,52.5,Trump
New Hampshire,University of New Hampshire,5/14/20,5/18/20,44.0,46.0,Trump
US,Kaiser Family Foundation,5/13/20,5/18/20,43.0,41.0,Biden
US,Change Research,5/15/20,5/17/20,48.0,45.0,Biden
US,Morning Consult,5/15/20,5/17/20,49.0,44.0,Biden
Florida,Point Blank Political,5/14/20,5/17/20,47.27,45.2,Biden
US,Morning Consult,5/11/20,5/17/20,46.0,41.0,Biden
Michigan,Change Research,5/11/20,5/17/20,47.81,45.11,Biden
US,RMG Research,5/14/20,5/16/20,43.0,39.0,Biden
US,Morning Consult,5/14/20,5/16/20,49.0,44.0,Biden
US,Optimus,5/9/20,5/16/20,48.37,38.83,Biden
Virginia,Roanoke College,5/3/20,5/16/20,51.0,39.0,Biden
Kentucky,Public Policy Polling,5/14/20,5/15/20,39.0,55.0,Trump
US,Morning Consult,5/13/20,5/15/20,49.0,43.0,Biden
Utah,Y2 Analytics,5/9/20,5/15/20,39.67,46.0,Trump
US,PureSpectrum,5/2/20,5/15/20,43.0,39.0,Biden
US,Harris Insights & Analytics,5/13/20,5/14/20,49.33,45.0,Biden
US,Morning Consult,5/12/20,5/14/20,49.0,44.0,Biden
Arizona,Redfield & Wilton Strategies,5/10/20,5/14/20,45.0,41.0,Biden
North Carolina,Redfield & Wilton Strategies,5/10/20,5/14/20,45.0,43.0,Biden
Florida,Redfield & Wilton Strategies,5/10/20,5/14/20,45.0,43.0,Biden
Pennsylvania,Redfield & Wilton Strategies,5/10/20,5/14/20,48.0,39.0,Biden
Michigan,Redfield & Wilton Strategies,5/10/20,5/14/20,47.0,39.0,Biden
Wisconsin,Redfield & Wilton Strategies,5/10/20,5/14/20,48.0,38.0,Biden
Georgia,BK Strategies,5/11/20,5/13/20,46.0,48.0,Trump
US,Morning Consult,5/11/20,5/13/20,48.0,44.0,Biden
Pennsylvania,Hodas & Associates,5/9/20,5/13/20,46.0,50.25,Trump
North Carolina,Meeting Street Research,5/9/20,5/13/20,46.6,46.8,Trump
US,Data for Progress,5/12/20,5/12/20,49.82,42.69,Biden
US,Ipsos,5/11/20,5/12/20,44.33,37.33,Biden
US,YouGov,5/10/20,5/12/20,47.0,43.0,Biden
US,Morning Consult,5/10/20,5/12/20,48.0,45.0,Biden
Florida,Florida Atlantic University,5/8/20,5/12/20,52.85,47.15,Biden
US,Optimus,5/5/20,5/12/20,48.7,40.9,Biden
Arizona,OH Predictive Insights,5/9/20,5/11/20,50.23,42.78,Biden
US,Morning Consult,5/9/20,5/11/20,48.0,45.0,Biden
Colorado,Global Strategy Group,5/7/20,5/11/20,53.0,40.0,Biden
Texas,Emerson College,5/8/20,5/10/20,48.31,51.69,Trump
Ohio,Emerson College,5/8/20,5/10/20,48.63,51.37,Trump
US,Morning Consult,5/8/20,5/10/20,48.0,45.0,Biden
US,SSRS,5/7/20,5/10/20,51.0,46.0,Biden
Nebraska CD-2,DCCC Targeting and Analytics Department,5/7/20,5/10/20,52.0,41.0,Biden
US,Morning Consult,5/4/20,5/10/20,48.5,43.5,Biden
US,Redfield & Wilton Strategies,5/8/20,5/9/20,49.5,42.0,Biden
California,Emerson College,5/8/20,5/9/20,65.17,34.83,Biden
US,RMG Research,5/7/20,5/9/20,44.0,38.0,Biden
North Carolina,East Carolina University,5/7/20,5/9/20,43.1,46.05,Trump
US,Morning Consult,5/7/20,5/9/20,48.0,44.0,Biden
US,Optimus,5/2/20,5/9/20,46.9,41.9,Biden
Wisconsin,Hodas & Associates,5/6/20,5/8/20,51.25,42.09,Biden
US,Morning Consult,5/6/20,5/8/20,49.0,44.0,Biden
US,Morning Consult,5/5/20,5/7/20,49.0,44.0,Biden
Georgia,Public Opinion Strategies,5/4/20,5/7/20,47.0,46.0,Biden
Wisconsin,Marquette University Law School,5/3/20,5/7/20,48.0,44.33,Biden
US,Harris Insights & Analytics,5/6/20,5/6/20,41.0,41.0,Tie
Massachusetts,Emerson College,5/5/20,5/6/20,66.87,33.13,Biden
US,Morning Consult,5/4/20,5/6/20,49.0,44.0,Biden
US,Data for Progress,5/5/20,5/5/20,50.24,43.51,Biden
US,Ipsos,5/4/20,5/5/20,41.67,40.0,Biden
US,YouGov,5/4/20,5/5/20,45.0,42.0,Biden
US,YouGov,5/3/20,5/5/20,46.0,42.0,Biden
US,Civiqs,5/2/20,5/5/20,47.0,44.0,Biden
Michigan,Hodas & Associates,5/1/20,5/5/20,50.91,42.09,Biden
US,Optimus,4/28/20,5/5/20,47.57,41.63,Biden
North Carolina,Civiqs,5/2/20,5/4/20,49.0,47.0,Biden
US,Monmouth University,4/30/20,5/4/20,48.5,40.5,Biden
New York,Quinnipiac University,4/30/20,5/4/20,55.0,32.0,Biden
New Jersey,Quinnipiac University,4/30/20,5/4/20,54.0,35.0,Biden
Connecticut,Quinnipiac University,4/30/20,5/4/20,56.0,33.0,Biden
US,Morning Consult,5/2/20,5/3/20,45.0,41.0,Biden
US,Change Research,5/1/20,5/3/20,47.0,44.0,Biden
Colorado,Keating Research/OnSight Public Affairs/Melanson,5/1/20,5/3/20,55.0,36.0,Biden
US,Morning Consult,4/27/20,5/3/20,46.0,42.0,Biden
US,RMG Research,4/30/20,5/2/20,46.0,39.0,Biden
US,Optimus,4/25/20,5/2/20,46.2,41.9,Biden
New Jersey,Rutgers University,4/22/20,5/2/20,55.67,32.67,Biden
Iowa,Public Policy Polling,4/30/20,5/1/20,46.0,48.0,Trump
US,YouGov,4/28/20,5/1/20,49.0,43.0,Biden
Massachusetts,University of Massachusetts Lowell,4/27/20,5/1/20,58.0,30.0,Biden
Tennessee,East Tennessee State University,4/22/20,5/1/20,36.0,53.0,Trump
Nevada,ALG Research,4/27/20,4/30/20,49.0,45.0,Biden
US,PureSpectrum,4/16/20,4/30/20,44.0,40.0,Biden
Michigan,Public Policy Polling,4/28/20,4/29/20,50.0,42.0,Biden
US,Ipsos,4/27/20,4/29/20,44.0,38.0,Biden
US,IBD/TIPP,4/26/20,4/29/20,43.0,43.0,Tie
US,Data for Progress,4/28/20,4/28/20,52.08,42.79,Biden
Texas,Public Policy Polling,4/27/20,4/28/20,47.0,46.0,Biden
North Carolina,Meredith College,4/27/20,4/28/20,47.4,40.4,Biden
US,Emerson College,4/26/20,4/28/20,53.65,46.35,Biden
US,YouGov,4/26/20,4/28/20,47.0,41.0,Biden
US,Optimus,4/21/20,4/28/20,46.2,42.5,Biden
Georgia,Cygnal,4/25/20,4/27/20,44.0,45.05,Trump
New Hampshire,Saint Anselm College,4/23/20,4/27/20,50.0,42.0,Biden
Texas,University of Texas at Tyler,4/18/20,4/27/20,43.0,43.0,Tie
Montana,Montana State University Bozeman,4/10/20,4/27/20,39.83,45.16,Trump
North Carolina,SurveyUSA,4/23/20,4/26/20,50.0,45.0,Biden
Pennsylvania,Harper Polling,4/21/20,4/26/20,49.0,43.0,Biden
US,Morning Consult,4/20/20,4/26/20,46.0,42.0,Biden
US,RMG Research,4/23/20,4/25/20,46.0,38.0,Biden
US,Suffolk University,4/21/20,4/25/20,46.13,38.8,Biden
Ohio,Baldwin Wallace University,4/20/20,4/25/20,44.95,44.1,Biden
US,Optimus,4/18/20,4/25/20,49.27,41.27,Biden
New York,Siena College,4/19/20,4/23/20,65.0,29.0,Biden
US,Redfield & Wilton Strategies,4/21/20,4/21/20,51.5,42.0,Biden
US,Data for Progress,4/21/20,4/21/20,49.61,44.16,Biden
North Carolina,Public Policy Polling,4/20/20,4/21/20,49.0,46.0,Biden
Michigan,Public Policy Polling,4/20/20,4/21/20,51.0,44.0,Biden
Pennsylvania,Public Policy Polling,4/20/20,4/21/20,51.0,44.0,Biden
Wisconsin,Public Policy Polling,4/20/20,4/21/20,50.0,45.0,Biden
New Mexico,Public Policy Polling,4/20/20,4/21/20,52.0,40.0,Biden
US,YouGov,4/19/20,4/21/20,48.0,42.0,Biden
Michigan,Fox News/Beacon Research/Shaw & Co. Research,4/18/20,4/21/20,49.0,41.0,Biden
Pennsylvania,Fox News/Beacon Research/Shaw & Co. Research,4/18/20,4/21/20,50.0,42.0,Biden
US,Echelon Insights,4/18/20,4/21/20,52.0,43.0,Biden
Florida,Fox News/Beacon Research/Shaw & Co. Research,4/18/20,4/21/20,46.0,43.0,Biden
US,Ipsos,4/15/20,4/21/20,45.67,38.0,Biden
Utah,RMG Research,4/15/20,4/21/20,32.0,51.0,Trump
US,Optimus,4/14/20,4/21/20,49.67,41.1,Biden
US,Harris Insights & Analytics,4/19/20,4/20/20,42.0,40.0,Biden
Florida,Quinnipiac University,4/16/20,4/20/20,46.0,42.0,Biden
US,Fordham University,4/16/20,4/20/20,56.0,42.0,Biden
Michigan,Ipsos,4/15/20,4/20/20,45.67,37.33,Biden
Pennsylvania,Ipsos,4/15/20,4/20/20,44.67,39.0,Biden
Wisconsin,Ipsos,4/15/20,4/20/20,41.67,39.0,Biden
Pennsylvania,Susquehanna Polling & Research Inc.,4/14/20,4/20/20,48.0,42.0,Biden
US,Climate Nexus,4/19/20,4/19/20,49.0,40.0,Biden
New Jersey,Monmouth University,4/16/20,4/19/20,54.0,38.0,Biden
US,Morning Consult,4/13/20,4/19/20,47.0,42.0,Biden
Texas,YouGov,4/10/20,4/19/20,44.0,49.0,Trump
Colorado,Montana State University Bozeman,4/10/20,4/19/20,53.16,35.0,Biden
US,Change Research,4/17/20,4/18/20,48.0,44.0,Biden
US,RMG Research,4/16/20,4/18/20,49.0,40.0,Biden
Pennsylvania,Hodas & Associates,4/16/20,4/18/20,47.25,47.25,Tie
North Carolina,Garin-Hart-Yang Research Group,4/13/20,4/18/20,48.0,45.0,Biden
US,Optimus,4/11/20,4/18/20,49.0,41.1,Biden
Florida,St. Pete Polls,4/16/20,4/17/20,48.3,47.5,Biden
US,Morning Consult,4/14/20,4/16/20,46.33,42.33,Biden
US,Harris Insights & Analytics,4/14/20,4/16/20,53.5,46.5,Biden
Arizona,GBAO,4/13/20,4/16/20,47.0,46.0,Biden
Iowa,GBAO,4/13/20,4/16/20,45.0,48.0,Trump
North Carolina,GBAO,4/13/20,4/16/20,48.0,46.0,Biden
North Carolina,Public Policy Polling,4/14/20,4/15/20,48.0,47.0,Biden
US,Change Research,4/13/20,4/15/20,50.0,40.0,Biden
US,NBC News/The Wall Street Journal,4/13/20,4/15/20,49.0,42.0,Biden
Wisconsin,Hodas & Associates,4/13/20,4/15/20,50.0,45.41,Biden
US,UCLA Nationscape,4/9/20,4/15/20,48.0,43.0,Biden
US,Data for Progress,4/14/20,4/14/20,49.43,45.72,Biden
US,Ipsos,4/13/20,4/14/20,44.0,39.33,Biden
US,YouGov,4/12/20,4/14/20,48.0,43.0,Biden
US,Civiqs,4/11/20,4/14/20,48.0,44.0,Biden
US,Optimus,4/7/20,4/14/20,51.13,38.6,Biden
Indiana,Change Research,4/10/20,4/13/20,39.0,52.0,Trump
US,Pew Research Center,4/8/20,4/12/20,47.0,45.0,Biden
Kentucky,Bluegrass Voters Coalition,4/7/20,4/12/20,34.0,55.0,Trump
US,Morning Consult,4/6/20,4/12/20,45.0,42.0,Biden
Michigan,Hodas & Associates,4/9/20,4/11/20,49.34,43.16,Biden
US,Global Strategy Group,4/6/20,4/10/20,49.0,45.0,Biden
US,Optimus,4/4/20,4/10/20,50.17,39.67,Biden
Mississippi,Chism Strategies,4/8/20,4/9/20,38.1,48.7,Trump
Arizona,OH Predictive Insights,4/7/20,4/8/20,52.0,43.0,Biden
Michigan,Garin-Hart-Yang Research Group,4/6/20,4/8/20,50.0,41.0,Biden
Wisconsin,Garin-Hart-Yang Research Group,4/6/20,4/8/20,48.0,47.0,Biden
Virginia,Virginia Commonwealth University,3/25/20,4/8/20,51.0,41.0,Biden
US,Ipsos,4/6/20,4/7/20,43.0,37.0,Biden
US,YouGov,4/6/20,4/7/20,49.0,40.33,Biden
US,YouGov,4/5/20,4/7/20,48.0,42.0,Biden
North Carolina,Harper Polling,4/5/20,4/7/20,42.0,49.33,Trump
US,Fox News/Beacon Research/Shaw & Co. Research,4/4/20,4/7/20,42.0,42.0,Tie
US,Monmouth University,4/3/20,4/7/20,48.0,44.0,Biden
US,Climate Nexus,4/3/20,4/7/20,44.52,39.06,Biden
US,SSRS,4/3/20,4/6/20,53.0,42.0,Biden
US,NBC News/The Wall Street Journal,4/3/20,4/6/20,44.0,39.0,Biden
US,Quinnipiac University,4/2/20,4/6/20,49.0,41.0,Biden
Washington,EMC Research,3/31/20,4/6/20,52.0,39.0,Biden
US,Garin-Hart-Yang Research Group,4/3/20,4/5/20,50.0,43.0,Biden
US,Morning Consult,3/30/20,4/5/20,46.0,42.33,Biden
Florida,University of North Florida,3/31/20,4/4/20,46.0,40.0,Biden
US,Optimus,3/28/20,4/4/20,47.9,40.8,Biden
US,Research Co.,4/3/20,4/3/20,45.0,40.0,Biden
US,Change Research,4/2/20,4/3/20,43.0,44.5,Trump
Connecticut,Sacred Heart University,3/24/20,4/3/20,47.3,34.97,Biden
Michigan,Public Policy Polling,3/31/20,4/1/20,48.0,45.0,Biden
Georgia,Battleground Connect,3/31/20,4/1/20,46.0,48.0,Trump
Michigan,Spry Strategies,3/30/20,4/1/20,45.81,46.12,Trump
US,IBD/TIPP,3/29/20,4/1/20,47.0,41.33,Biden
US,Ipsos,3/30/20,3/31/20,46.0,40.0,Biden
US,YouGov,3/29/20,3/31/20,46.0,42.67,Biden
US,Selzer & Co.,3/27/20,3/30/20,47.0,43.33,Biden
Utah,Y2 Analytics,3/21/20,3/30/20,41.0,46.0,Trump
California,Public Policy Polling,3/28/20,3/29/20,67.0,29.0,Biden
Wisconsin,Marquette University Law School,3/24/20,3/29/20,48.67,45.2,Biden
US,Morning Consult,3/23/20,3/29/20,46.0,42.33,Biden
US,RMG Research,3/26/20,3/28/20,45.0,40.0,Biden
US,Change Research,3/26/20,3/28/20,48.67,43.0,Biden
US,Optimus,3/21/20,3/28/20,48.47,40.2,Biden
US,YouGov,3/25/20,3/26/20,46.0,40.33,Biden
US,Harris Insights & Analytics,3/24/20,3/26/20,55.0,46.0,Biden
US,Zogby Interactive/JZ Analytics,3/24/20,3/26/20,46.0,45.0,Biden
New York,Siena College,3/22/20,3/26/20,58.0,33.0,Biden
US,ABC News/The Washington Post,3/22/20,3/25/20,49.5,45.5,Biden
Michigan,Baldwin Wallace University,3/17/20,3/25/20,47.3,42.23,Biden
Ohio,Baldwin Wallace University,3/17/20,3/25/20,42.9,47.07,Trump
Pennsylvania,Baldwin Wallace University,3/17/20,3/25/20,44.5,46.87,Trump
Wisconsin,Baldwin Wallace University,3/17/20,3/25/20,44.9,45.13,Trump
US,YouGov,3/22/20,3/24/20,46.0,42.67,Biden
US,Fox News/Beacon Research/Shaw & Co. Research,3/21/20,3/24/20,49.0,40.0,Biden
US,Echelon Insights,3/20/20,3/24/20,50.5,41.4,Biden
US,Ipsos,3/18/20,3/24/20,44.0,37.33,Biden
US,Lord Ashcroft Polls,3/10/20,3/24/20,48.0,37.0,Biden
US,Redfield & Wilton Strategies,3/23/20,3/23/20,49.0,41.5,Biden
US,Monmouth University,3/18/20,3/22/20,48.0,45.0,Biden
US,Morning Consult,3/16/20,3/22/20,47.0,42.0,Biden
Pennsylvania,Hodas & Associates,3/19/20,3/21/20,45.84,47.72,Trump
Michigan,Marketing Resource Group (MRG),3/16/20,3/20/20,44.0,41.0,Biden
US,Emerson College,3/18/20,3/19/20,53.09,46.85,Biden
Wisconsin,Hodas & Associates,3/17/20,3/19/20,45.9,49.57,Trump
US,YouGov,3/15/20,3/17/20,48.0,41.0,Biden
Florida,AtlasIntel,3/14/20,3/16/20,45.4,46.07,Trump
US,Ipsos,3/13/20,3/16/20,44.33,37.0,Biden
Michigan,Hodas & Associates,3/12/20,3/16/20,51.02,44.51,Biden
US,RMG Research,3/13/20,3/15/20,47.0,43.67,Biden
US,Garin-Hart-Yang Research Group,3/13/20,3/15/20,51.0,43.0,Biden
US,Morning Consult,3/11/20,3/15/20,48.0,42.0,Biden
Arizona,Marist College,3/10/20,3/15/20,47.0,46.67,Biden
Arizona,Monmouth University,3/11/20,3/14/20,46.0,43.33,Biden
US,NBC News/The Wall Street Journal,3/11/20,3/13/20,52.0,44.0,Biden
Ohio,Marist College,3/10/20,3/13/20,49.0,45.33,Biden
Florida,Latino Decisions,3/6/20,3/12/20,45.0,48.33,Trump
US,Hofstra University,3/5/20,3/12/20,50.6,49.57,Biden
Connecticut,Sacred Heart University,2/24/20,3/12/20,51.9,36.4,Biden
Wisconsin,Public Policy Polling,3/10/20,3/11/20,48.0,45.33,Biden
Kansas,Public Policy Polling,3/10/20,3/11/20,40.0,52.0,Trump
US,YouGov,3/10/20,3/11/20,45.0,41.33,Biden
US,Civiqs,3/8/20,3/11/20,48.0,46.0,Biden
Arizona,Latino Decisions,3/6/20,3/11/20,50.0,42.33,Biden
US,YouGov,3/8/20,3/10/20,47.0,43.0,Biden
Michigan,AtlasIntel,3/7/20,3/9/20,44.1,44.8,Trump
US,Ipsos,3/6/20,3/9/20,42.33,40.8,Biden
Michigan,YouGov,3/6/20,3/8/20,45.0,41.33,Biden
Pennsylvania,YouGov,3/6/20,3/8/20,46.0,40.33,Biden
Wisconsin,YouGov,3/6/20,3/8/20,44.0,41.33,Biden
US,Rasmussen Reports/Pulse Opinion Research,3/5/20,3/8/20,48.0,42.0,Biden
Michigan,Monmouth University,3/5/20,3/8/20,48.0,41.0,Biden
US,Quinnipiac University,3/5/20,3/8/20,52.0,41.33,Biden
US,Morning Consult,3/5/20,3/8/20,48.0,41.0,Biden
Oklahoma,Amber Integrated,3/5/20,3/8/20,33.0,57.67,Trump
Michigan,Optimus,3/5/20,3/7/20,44.34,46.87,Trump
Pennsylvania,Optimus,3/5/20,3/7/20,43.89,45.53,Trump
Wisconsin,Optimus,3/5/20,3/7/20,43.07,45.79,Trump
Florida,Florida Atlantic University,3/5/20,3/7/20,49.4,51.3,Trump
US,SSRS,3/4/20,3/7/20,53.0,43.67,Biden
Washington,SurveyUSA,3/4/20,3/6/20,57.0,35.25,Biden
North Dakota,DFM Research,3/3/20,3/5/20,38.0,56.5,Trump
Iowa,Selzer & Co.,3/2/20,3/5/20,41.0,52.25,Trump
Arizona,OH Predictive Insights,3/3/20,3/4/20,49.0,43.67,Biden
Maine,Public Policy Polling,3/2/20,3/3/20,52.0,42.0,Biden
Arizona,Public Policy Polling,3/2/20,3/3/20,48.0,47.0,Biden
California,AtlasIntel,2/24/20,3/2/20,62.1,26.58,Biden
Texas,AtlasIntel,2/24/20,3/2/20,42.8,47.66,Trump
Georgia,University of Georgia,2/24/20,3/2/20,43.1,51.34,Trump
Utah,RMG Research,2/24/20,3/1/20,33.0,50.0,Trump
US,IBD/TIPP,2/20/20,2/29/20,49.0,45.86,Biden
North Carolina,East Carolina University,2/27/20,2/28/20,48.1,46.86,Biden
California,YouGov,2/26/20,2/28/20,59.0,31.57,Biden
Mississippi,Mason-Dixon Polling & Strategy,2/26/20,2/28/20,41.0,57.5,Trump
US,Harris Insights & Analytics,2/26/20,2/28/20,55.0,46.25,Biden
South Carolina,AtlasIntel,2/25/20,2/28/20,41.8,48.1,Trump
Virginia,Hampton University,2/25/20,2/28/20,45.0,38.29,Biden
US,YouGov,2/26/20,2/27/20,50.0,41.83,Biden
Missouri,Remington Research Group,2/26/20,2/27/20,42.0,52.0,Trump
US,Morning Consult,2/23/20,2/27/20,46.0,42.0,Biden
North Carolina,Marist College,2/23/20,2/27/20,49.0,45.33,Biden
Texas,Marist College,2/23/20,2/27/20,45.0,49.0,Trump
US,Fox News/Beacon Research/Shaw & Co. Research,2/23/20,2/26/20,49.0,41.71,Biden
California,SSRS,2/22/20,2/26/20,60.0,35.43,Biden
Texas,SSRS,2/22/20,2/26/20,48.0,47.43,Biden
Texas,Univision/University of Houston/Latino Decisions,2/21/20,2/26/20,43.0,45.67,Trump
Texas,University of Texas at Tyler,2/17/20,2/26/20,44.0,45.29,Trump
California,"University of California- Berkeley",2/20/20,2/25/20,57.8,30.84,Biden
US,Ipsos,2/19/20,2/25/20,45.4,38.91,Biden
New Hampshire,University of New Hampshire,2/19/20,2/25/20,44.0,45.4,Trump
Wisconsin,Marquette University Law School,2/19/20,2/23/20,46.67,45.92,Biden
US,YouGov,2/20/20,2/22/20,47.0,44.71,Biden
US,Saint Leo University,2/17/20,2/22/20,46.8,37.91,Biden
Florida,Saint Leo University,2/17/20,2/22/20,51.2,40.03,Biden
Montana,University of Montana,2/12/20,2/22/20,33.9,55.01,Trump
Nevada,AtlasIntel,2/19/20,2/21/20,43.7,40.14,Biden
New York,Siena College,2/16/20,2/20/20,55.0,36.57,Biden
Pennsylvania,Muhlenberg College,2/12/20,2/20/20,47.0,46.57,Biden
Pennsylvania,YouGov,2/11/20,2/20/20,46.0,44.5,Biden
Michigan,YouGov,2/11/20,2/20/20,47.0,42.0,Biden
Wisconsin,YouGov,2/11/20,2/20/20,45.0,43.33,Biden
North Carolina,Climate Nexus,2/15/20,2/19/20,46.0,43.29,Biden
Colorado,Climate Nexus,2/15/20,2/19/20,46.0,43.0,Biden
Maryland,Goucher College,2/13/20,2/19/20,60.0,34.11,Biden
US,Emerson College,2/16/20,2/18/20,48.2,50.76,Trump
Michigan,Quinnipiac University,2/12/20,2/18/20,47.0,43.14,Biden
Pennsylvania,Quinnipiac University,2/12/20,2/18/20,50.0,42.71,Biden
Wisconsin,Quinnipiac University,2/12/20,2/18/20,42.0,49.57,Trump
Florida,University of North Florida,2/10/20,2/18/20,49.0,47.43,Biden
Virginia,Roanoke College,2/9/20,2/18/20,48.0,40.0,Biden
Michigan,Expedition Strategies,2/6/20,2/18/20,43.0,41.8,Biden
Pennsylvania,Expedition Strategies,2/6/20,2/18/20,47.0,41.2,Biden
Wisconsin,Expedition Strategies,2/6/20,2/18/20,42.0,44.2,Trump
US,Ipsos,2/14/20,2/17/20,42.0,39.86,Biden
US,NBC News/The Wall Street Journal,2/14/20,2/17/20,52.0,44.4,Biden
US,ABC News/The Washington Post,2/14/20,2/17/20,52.0,44.67,Biden
US,SurveyUSA,2/13/20,2/17/20,48.0,45.38,Biden
US,Morning Consult,2/12/20,2/17/20,45.0,42.33,Biden
US,Marist College,2/13/20,2/16/20,50.0,44.71,Biden
North Carolina,SurveyUSA,2/13/20,2/16/20,49.0,45.43,Biden
California,SurveyUSA,2/13/20,2/16/20,57.0,36.75,Biden
New Jersey,Fairleigh Dickinson University (PublicMind),2/12/20,2/16/20,52.33,34.62,Biden
Arizona,Climate Nexus,2/11/20,2/15/20,42.0,45.57,Trump
California,YouGov,2/1/20,2/15/20,59.9,30.86,Biden
US,Zogby Interactive/JZ Analytics,2/13/20,2/14/20,46.0,46.0,Tie
Oklahoma,Cole Hargrave Snodgrass & Associates,2/10/20,2/13/20,33.5,60.75,Trump
New Hampshire,AtlasIntel,2/8/20,2/10/20,43.5,46.16,Trump
US,Ipsos,2/7/20,2/10/20,44.0,41.5,Biden
US,Quinnipiac University,2/5/20,2/9/20,50.0,43.0,Biden
US,Morning Consult,2/4/20,2/9/20,45.0,42.17,Biden
Texas,YouGov,1/31/20,2/9/20,43.0,46.43,Trump
Alabama,Mason-Dixon Polling & Strategy,2/4/20,2/6/20,38.0,58.4,Trump
Kansas,DFM Research,1/30/20,2/6/20,43.0,51.75,Trump
New Hampshire,McLaughlin & Associates,2/4/20,2/5/20,45.0,48.5,Trump
US,Zogby Interactive/JZ Analytics,1/31/20,2/2/20,46.0,46.0,Tie
South Carolina,East Carolina University,1/31/20,2/2/20,40.0,52.38,Trump
US,AtlasIntel,1/30/20,2/2/20,45.8,44.98,Biden
US,Morning Consult,1/27/20,2/2/20,46.0,41.4,Biden
North Dakota,DFM Research,1/28/20,2/1/20,36.0,58.75,Trump
Tennessee,Mason-Dixon Polling & Strategy,1/28/20,1/30/20,39.0,55.6,Trump
US,IBD/TIPP,1/23/20,1/30/20,49.0,48.4,Biden
Texas,University of Texas at Tyler,1/21/20,1/30/20,43.0,46.07,Trump
US,NBC News/The Wall Street Journal,1/26/20,1/29/20,50.0,44.75,Biden
US,USC Dornsife/Los Angeles Times,1/15/20,1/28/20,49.0,40.2,Biden
US,Morning Consult,1/20/20,1/26/20,47.0,41.4,Biden
Arizona,"Fabrizio- Lee & Associates",1/22/20,1/24/20,45.0,50.0,Trump
US,Emerson College,1/21/20,1/23/20,50.4,49.88,Biden
US,ABC News/The Washington Post,1/20/20,1/23/20,50.5,45.58,Biden
Iowa,Siena College/The New York Times Upshot,1/20/20,1/23/20,44.0,46.5,Trump
New Hampshire,Marist College,1/20/20,1/23/20,51.0,42.75,Biden
US,Echelon Insights,1/20/20,1/23/20,49.0,40.5,Biden
Missouri,American Viewpoint,1/20/20,1/22/20,43.0,50.5,Trump
US,Fox News/Beacon Research/Shaw & Co. Research,1/19/20,1/22/20,50.0,41.43,Biden
Utah,RMG Research,1/15/20,1/22/20,31.0,48.5,Trump
Delaware,Gonzales Research & Marketing Strategies Inc.,1/16/20,1/21/20,55.9,44.92,Biden
Texas,Data for Progress,1/16/20,1/21/20,40.0,55.25,Trump
US,SSRS,1/16/20,1/19/20,53.0,44.5,Biden
US,Morning Consult,1/15/20,1/19/20,46.0,41.8,Biden
Texas,Texas Lyceum,1/10/20,1/19/20,46.0,50.5,Trump
US,Zogby Interactive/JZ Analytics,1/15/20,1/16/20,46.0,46.0,Tie
US,SurveyUSA,1/14/20,1/16/20,50.0,43.78,Biden
California,SurveyUSA,1/14/20,1/16/20,59.0,37.0,Biden
Wisconsin,Tarrance Group,1/14/20,1/16/20,47.0,46.5,Biden
US,YouGov,1/11/20,1/14/20,45.0,44.0,Biden
Michigan,EPIC-MRA,1/9/20,1/12/20,50.0,43.8,Biden
Florida,Florida Atlantic University,1/9/20,1/12/20,51.4,48.72,Biden
Wisconsin,Marquette University Law School,1/8/20,1/12/20,48.5,46.88,Biden
US,Morning Consult,1/6/20,1/12/20,46.0,41.6,Biden
Florida,Cherry Communications,1/3/20,1/12/20,45.0,49.5,Trump
US,IBD/TIPP,1/3/20,1/11/20,48.0,46.2,Biden
West Virginia,WPA Intelligence (WPAi),1/7/20,1/9/20,31.0,66.0,Trump
Alabama,WPA Intelligence (WPAi),1/7/20,1/9/20,38.0,59.0,Trump
Nevada,Fox News/Beacon Research/Shaw & Co. Research,1/5/20,1/8/20,47.0,40.5,Biden
Wisconsin,Fox News/Beacon Research/Shaw & Co. Research,1/5/20,1/8/20,46.0,41.5,Biden
Michigan,Glengariff Group,1/3/20,1/7/20,50.1,43.28,Biden
New Mexico,Emerson College,1/3/20,1/6/20,54.3,44.35,Biden
US,Morning Consult,12/30/19,1/5/20,46.0,41.4,Biden
Arizona,Public Policy Polling,1/2/20,1/4/20,46.0,46.75,Trump
Connecticut,Sacred Heart University,12/16/19,1/2/20,51.7,34.15,Biden
Iowa,Public Policy Polling,12/29/19,12/31/19,46.0,48.75,Trump
US,YouGov,12/28/19,12/31/19,49.0,41.0,Biden
US,Meeting Street Research,12/28/19,12/30/19,49.0,38.0,Biden
Georgia,Mason-Dixon Polling & Strategy,12/19/19,12/23/19,44.0,52.25,Trump
US,Ipsos,12/18/19,12/19/19,38.0,36.12,Biden
US,Emerson College,12/15/19,12/17/19,51.6,48.9,Biden
US,YouGov,12/14/19,12/17/19,48.0,42.0,Biden
Virginia,Mason-Dixon Polling & Strategy,12/12/19,12/16/19,49.0,47.75,Biden
Florida,Mason-Dixon Polling & Strategy,12/11/19,12/16/19,47.0,48.5,Trump
US,SSRS,12/12/19,12/15/19,49.0,45.25,Biden
US,Suffolk University,12/10/19,12/14/19,40.6,43.76,Trump
US,IBD/TIPP,12/5/19,12/14/19,50.0,47.33,Biden
Virginia,Virginia Commonwealth University,12/2/19,12/13/19,48.0,46.56,Biden
US,Fox News/Beacon Research/Shaw & Co. Research,12/8/19,12/11/19,48.0,42.2,Biden
Iowa,Emerson College,12/7/19,12/10/19,45.0,48.73,Trump
US,YouGov,12/7/19,12/10/19,45.0,42.0,Biden
US,Quinnipiac University,12/4/19,12/9/19,51.0,42.67,Biden
Texas,SSRS,12/4/19,12/9/19,47.0,49.75,Trump
US,Zogby Interactive/JZ Analytics,12/5/19,12/8/19,45.0,45.8,Trump
California,SSRS,12/4/19,12/8/19,56.0,36.75,Biden
Wisconsin,Marquette University Law School,12/3/19,12/8/19,48.0,46.3,Biden
Wisconsin,Optimus,12/3/19,12/5/19,39.08,49.49,Trump
Michigan,Optimus,12/3/19,12/5/19,40.87,47.41,Trump
Pennsylvania,Optimus,12/3/19,12/5/19,41.24,46.31,Trump
Arizona,OH Predictive Insights,12/3/19,12/4/19,44.0,46.4,Trump
New Hampshire,Emerson College,11/22/19,11/26/19,49.1,45.42,Biden
California,SurveyUSA,11/20/19,11/22/19,59.0,34.0,Biden
US,SurveyUSA,11/20/19,11/21/19,52.5,40.67,Biden
US,SocialSphere,11/15/19,11/21/19,51.0,40.0,Biden
Texas,Beacon Research,11/9/19,11/21/19,44.0,45.5,Trump
US,Emerson College,11/17/19,11/20/19,49.3,50.65,Trump
Georgia,SurveyUSA,11/15/19,11/18/19,47.0,44.5,Biden
New Hampshire,Saint Anselm College,11/13/19,11/18/19,51.0,44.25,Biden
Wisconsin,Marquette University Law School,11/13/19,11/17/19,44.5,48.08,Trump
Texas,University of Texas at Tyler,11/5/19,11/14/19,39.4,45.2,Trump
North Carolina,Fox News/Beacon Research/Shaw & Co. Research,11/10/19,11/13/19,45.0,43.5,Biden
Nevada,Fox News/Beacon Research/Shaw & Co. Research,11/10/19,11/13/19,47.0,40.5,Biden
Georgia,Climate Nexus,11/4/19,11/10/19,48.0,48.0,Tie
Pennsylvania,Muhlenberg College,11/4/19,11/9/19,52.0,44.33,Biden
US,Morning Consult,11/8/19,11/8/19,44.0,39.0,Biden
Georgia,University of Georgia,10/30/19,11/8/19,51.1,43.42,Biden
US,YouGov,11/3/19,11/5/19,47.0,42.0,Biden
Michigan,Emerson College,10/31/19,11/3/19,55.8,44.53,Biden
Nevada,Emerson College,10/31/19,11/2/19,49.3,50.57,Trump
US,Hofstra University,10/25/19,10/31/19,51.5,48.08,Biden
US,IBD/TIPP,10/24/19,10/31/19,53.0,44.0,Biden
Georgia,Zogby Interactive/JZ Analytics,10/28/19,10/30/19,46.0,44.0,Biden
US,ABC News/The Washington Post,10/27/19,10/30/19,56.0,40.1,Biden
US,Fox News/Beacon Research/Shaw & Co. Research,10/27/19,10/30/19,51.0,40.6,Biden
US,NBC News/The Wall Street Journal,10/27/19,10/30/19,50.0,41.5,Biden
Iowa,Siena College/The New York Times Upshot,10/25/19,10/30/19,44.24,45.89,Trump
US,YouGov,10/27/19,10/29/19,47.0,42.0,Biden
Arizona,Emerson College,10/25/19,10/28/19,50.0,50.53,Trump
US,Morning Consult,10/25/19,10/28/19,41.0,36.0,Biden
Texas,YouGov,10/18/19,10/27/19,39.0,46.0,Trump
Florida,Siena College/The New York Times Upshot,10/13/19,10/26/19,45.86,45.02,Biden
North Carolina,Siena College/The New York Times Upshot,10/13/19,10/26/19,45.78,47.76,Trump
Wisconsin,Siena College/The New York Times Upshot,10/13/19,10/26/19,46.45,45.29,Biden
Michigan,Siena College/The New York Times Upshot,10/13/19,10/25/19,44.9,44.03,Biden
Pennsylvania,Siena College/The New York Times Upshot,10/13/19,10/25/19,46.38,44.67,Biden
Washington,Public Policy Polling,10/22/19,10/23/19,59.0,37.0,Biden
Arizona,Siena College/The New York Times Upshot,10/13/19,10/23/19,49.02,46.44,Biden
US,YouGov,10/20/19,10/22/19,47.0,41.0,Biden
US,Emerson College,10/18/19,10/21/19,50.7,49.17,Biden
US,SSRS,10/17/19,10/20/19,53.0,43.5,Biden
Florida,University of North Florida,10/14/19,10/20/19,48.5,43.25,Biden
US,Ipsos,10/17/19,10/18/19,45.0,37.33,Biden
Wisconsin,Marquette University Law School,10/13/19,10/17/19,50.5,44.88,Biden
US,SurveyUSA,10/15/19,10/16/19,51.33,42.8,Biden
California,SurveyUSA,10/15/19,10/16/19,57.67,33.8,Biden
Minnesota,Mason-Dixon Polling & Strategy,10/14/19,10/16/19,50.0,39.0,Biden
Iowa,Emerson College,10/13/19,10/16/19,49.4,50.33,Trump
US,YouGov,10/13/19,10/15/19,48.0,41.0,Biden
US,Lord Ashcroft Polls,10/1/19,10/15/19,59.0,42.6,Biden
Maine,Public Policy Polling,10/11/19,10/13/19,54.0,43.0,Biden
Maine CD-1,Public Policy Polling,10/11/19,10/13/19,58.0,38.6,Biden
Maine CD-2,Public Policy Polling,10/11/19,10/13/19,49.0,47.8,Biden
Ohio,Public Policy Polling,10/10/19,10/11/19,48.0,46.8,Biden
North Carolina,East Carolina University,10/2/19,10/9/19,49.7,48.26,Biden
US,YouGov,10/6/19,10/8/19,47.0,43.0,Biden
US,Fox News/Beacon Research/Shaw & Co. Research,10/6/19,10/8/19,50.0,40.0,Biden
US,Quinnipiac University,10/4/19,10/7/19,51.0,41.0,Biden
Ohio,Climate Nexus,10/1/19,10/7/19,53.0,48.8,Biden
North Carolina,Meredith College,9/29/19,10/7/19,34.6,38.88,Trump
North Carolina,Public Policy Polling,10/4/19,10/6/19,51.0,46.6,Biden
Virginia,Virginia Commonwealth University,9/23/19,10/4/19,51.67,45.89,Biden
US,Zogby Interactive/JZ Analytics,10/1/19,10/3/19,45.0,46.8,Trump
US,IBD/TIPP,9/26/19,10/3/19,51.0,45.25,Biden
Montana,University of Montana,9/26/19,10/3/19,46.5,53.06,Trump
US,Harris Insights & Analytics,10/1/19,10/2/19,44.0,37.0,Biden
Ohio,Emerson College,9/29/19,10/2/19,53.3,47.57,Biden
Wisconsin,Fox News/Beacon Research/Shaw & Co. Research,9/29/19,10/2/19,48.0,40.0,Biden
Connecticut,Sacred Heart University,9/17/19,10/2/19,52.2,34.38,Biden
US,Ipsos,9/26/19,9/30/19,41.0,35.17,Biden
Michigan,Target Insyght,9/24/19,9/26/19,54.0,35.0,Biden
US,Ipsos,9/23/19,9/24/19,40.5,36.67,Biden
US,Rasmussen Reports/Pulse Opinion Research,9/23/19,9/24/19,43.0,47.0,Trump
US,Civiqs,9/21/19,9/24/19,47.0,43.75,Biden
US,Emerson College,9/21/19,9/23/19,50.5,50.3,Biden
US,Harris Insights & Analytics,9/21/19,9/22/19,45.0,38.0,Biden
Missouri,Remington Research Group,9/18/19,9/19/19,42.0,53.67,Trump
US,Zogby Interactive/JZ Analytics,9/16/19,9/17/19,49.0,45.33,Biden
US,Fox News/Beacon Research/Shaw & Co. Research,9/15/19,9/17/19,52.0,39.5,Biden
US,YouGov,9/14/19,9/17/19,45.0,41.0,Biden
California,Emerson College,9/13/19,9/16/19,63.8,37.92,Biden
US,SurveyUSA,9/13/19,9/16/19,49.67,43.0,Biden
California,SurveyUSA,9/13/19,9/15/19,57.0,33.6,Biden
Texas,University of Texas at Tyler,9/13/19,9/15/19,39.6,39.25,Biden
Florida,Florida Atlantic University,9/12/19,9/15/19,49.5,50.77,Trump
Virginia,Research America Inc.,9/3/19,9/15/19,55.0,38.25,Biden
US,Marquette University Law School,9/3/19,9/13/19,45.0,34.5,Biden
Arizona,Bendixen & Amandi International,9/9/19,9/12/19,42.0,43.0,Trump
US,GQR Research (GQRR),9/7/19,9/11/19,50.0,41.67,Biden
Wisconsin,Optimus,9/7/19,9/9/19,44.0,42.33,Biden
Michigan,Optimus,9/7/19,9/9/19,42.0,42.0,Tie
Pennsylvania,Optimus,9/7/19,9/9/19,45.0,41.33,Biden
New Hampshire,Emerson College,9/6/19,9/9/19,54.6,47.82,Biden
Texas,Univision/University of Houston/Latino Decisions/North Star Opinion Research,8/31/19,9/6/19,47.0,42.17,Biden
US,ABC News/The Washington Post,9/2/19,9/5/19,54.5,41.2,Biden
US,IBD/TIPP,8/22/19,8/30/19,54.0,44.75,Biden
Wisconsin,Marquette University Law School,8/25/19,8/29/19,51.0,44.62,Biden
US,Emerson College,8/24/19,8/26/19,54.2,48.82,Biden
US,Quinnipiac University,8/21/19,8/26/19,54.0,39.4,Biden
Texas,Climate Nexus,8/20/19,8/25/19,43.0,44.57,Trump
US,Harris Insights & Analytics,8/22/19,8/23/19,44.0,38.22,Biden
Michigan,EPIC-MRA,8/17/19,8/21/19,51.0,42.75,Biden
Colorado,Emerson College,8/16/19,8/19/19,54.9,46.12,Biden
US,Morning Consult,8/16/19,8/18/19,42.0,35.14,Biden
Nevada,Gravis Marketing,8/14/19,8/16/19,49.0,45.57,Biden
Arizona,OH Predictive Insights,8/13/19,8/14/19,45.0,43.8,Biden
US,Fox News/Beacon Research/Shaw & Co. Research,8/11/19,8/13/19,50.0,38.75,Biden
US,Zogby Interactive/JZ Analytics,8/9/19,8/12/19,45.0,45.0,Tie
Alaska,Zogby Interactive/JZ Analytics,7/22/19,8/9/19,40.0,46.2,Trump
New Hampshire,Gravis Marketing,8/2/19,8/6/19,53.0,42.2,Biden
Utah,Y2 Analytics,7/31/19,8/6/19,35.0,40.14,Trump
US,SurveyUSA,8/1/19,8/5/19,50.0,43.14,Biden
California,SurveyUSA,8/1/19,8/5/19,61.0,28.86,Biden
North Carolina,SurveyUSA,8/1/19,8/5/19,49.0,42.86,Biden
Texas,University of Texas at Tyler,8/1/19,8/4/19,41.2,37.83,Biden
North Carolina,Harper Polling,8/1/19,8/4/19,44.0,46.0,Trump
Texas,Emerson College,8/1/19,8/3/19,50.8,51.64,Trump
US,IBD/TIPP,7/25/19,8/1/19,54.0,44.0,Biden
Washington,Zogby Interactive/JZ Analytics,7/22/19,8/1/19,51.9,32.16,Biden
US,Claster Consulting,7/29/19,7/31/19,47.0,41.0,Biden
Maine,"Fabrizio- Lee & Associates",7/29/19,7/31/19,50.0,44.0,Biden
Arizona,"Fabrizio- Lee & Associates",7/29/19,7/31/19,50.0,45.0,Biden
Colorado,"Fabrizio- Lee & Associates",7/29/19,7/31/19,51.0,42.0,Biden
Kentucky,"Fabrizio- Lee & Associates",7/29/19,7/31/19,41.0,53.0,Trump
North Carolina,"Fabrizio- Lee & Associates",7/29/19,7/31/19,49.0,45.0,Biden
US,Emerson College,7/27/19,7/29/19,51.3,50.16,Biden
US,GQR Research (GQRR),7/18/19,7/28/19,49.0,42.0,Biden
Texas,University of Texas at Tyler,7/24/19,7/27/19,36.9,37.88,Trump
US,Harris Insights & Analytics,7/25/19,7/26/19,42.0,39.44,Biden
US,Fox News/Beacon Research/Shaw & Co. Research,7/21/19,7/23/19,49.0,40.5,Biden
Ohio,Quinnipiac University,7/17/19,7/22/19,50.0,44.33,Biden
North Dakota,1892 Polling,7/15/19,7/17/19,34.0,60.0,Trump
Michigan,Climate Nexus,7/14/19,7/17/19,49.0,37.17,Biden
US,NBC News/The Wall Street Journal,7/7/19,7/9/19,51.0,43.0,Biden
US,Emerson College,7/6/19,7/8/19,53.4,49.78,Biden
US,Rasmussen Reports/Pulse Opinion Research,6/23/19,7/2/19,48.0,44.0,Biden
US,ABC News/The Washington Post,6/28/19,7/1/19,54.0,44.9,Biden
Maine,Gravis Marketing,6/24/19,6/24/19,54.0,47.6,Biden
US,Emerson College,6/21/19,6/24/19,54.8,46.62,Biden
US,Harris Insights & Analytics,6/22/19,6/23/19,41.0,40.67,Biden
North Carolina,Public Policy Polling,6/17/19,6/18/19,49.0,47.0,Biden
Florida,Quinnipiac University,6/12/19,6/17/19,50.0,42.83,Biden
Florida,St. Pete Polls,6/15/19,6/16/19,47.3,46.8,Biden
South Carolina,Change Research,6/11/19,6/14/19,38.0,54.0,Trump
Wisconsin,Optimus,6/11/19,6/13/19,46.0,40.5,Biden
Michigan,Optimus,6/11/19,6/13/19,46.0,43.5,Biden
Pennsylvania,Optimus,6/11/19,6/13/19,43.0,44.0,Trump
Kentucky,Gravis Marketing,6/11/19,6/12/19,37.0,58.5,Trump
US,Fox News/Beacon Research/Shaw & Co. Research,6/9/19,6/12/19,49.0,40.2,Biden
Michigan,EPIC-MRA,6/8/19,6/12/19,52.0,41.0,Biden
US,Ipsos,6/10/19,6/11/19,46.0,35.5,Biden
US,Quinnipiac University,6/6/19,6/10/19,53.0,41.5,Biden
US,Morning Consult,6/7/19,6/9/19,44.0,32.29,Biden
US,Basswood Research,6/3/19,6/6/19,47.8,44.55,Biden
US,Ipsos,5/29/19,6/5/19,48.5,36.1,Biden
Texas,Quinnipiac University,5/29/19,6/4/19,48.0,46.29,Biden
North Carolina,Emerson College,5/31/19,6/3/19,55.7,47.86,Biden
North Carolina,Spry Strategies,5/25/19,6/1/19,41.0,52.0,Trump
Michigan,Glengariff Group,5/28/19,5/30/19,49.25,41.47,Biden
US,Harris Insights & Analytics,5/25/19,5/26/19,43.0,38.64,Biden
US,Change Research,5/18/19,5/21/19,47.0,45.83,Biden
Florida,Florida Atlantic University,5/16/19,5/19/19,49.8,51.64,Trump
North Dakota,DFM Research,5/14/19,5/18/19,39.0,54.0,Trump
US,Civiqs,5/12/19,5/14/19,48.0,44.5,Biden
US,Fox News/Beacon Research/Shaw & Co. Research,5/11/19,5/14/19,49.0,40.4,Biden
Pennsylvania,Quinnipiac University,5/9/19,5/14/19,53.0,44.0,Biden
US,Emerson College,5/10/19,5/13/19,54.4,47.73,Biden
US,Zogby Interactive/JZ Analytics,5/2/19,5/9/19,49.0,40.5,Biden
Arizona,OH Predictive Insights,5/1/19,5/2/19,49.0,46.17,Biden
Florida,WPA Intelligence (WPAi),4/27/19,4/30/19,44.0,48.0,Trump
Iowa,WPA Intelligence (WPAi),4/27/19,4/30/19,44.0,49.0,Trump
Texas,WPA Intelligence (WPAi),4/27/19,4/30/19,42.0,49.0,Trump
Wisconsin,WPA Intelligence (WPAi),4/27/19,4/30/19,42.0,46.0,Trump
Michigan,WPA Intelligence (WPAi),4/27/19,4/30/19,45.0,42.0,Biden
Pennsylvania,WPA Intelligence (WPAi),4/27/19,4/30/19,46.0,45.0,Biden
US,Harris Insights & Analytics,4/28/19,4/29/19,43.0,37.82,Biden
Texas,Emerson College,4/25/19,4/28/19,50.5,51.88,Trump
US,SSRS,4/25/19,4/28/19,51.0,44.67,Biden
US,Harris Insights & Analytics,4/25/19,4/26/19,43.0,37.0,Biden
US,Morning Consult,4/19/19,4/21/19,42.0,34.0,Biden
Wisconsin,Zogby Interactive/JZ Analytics,4/15/19,4/18/19,50.0,41.17,Biden
US,Emerson College,4/11/19,4/14/19,52.8,49.55,Biden
Missouri,Remington Research Group,4/10/19,4/11/19,43.0,51.25,Trump
US,Civiqs,4/6/19,4/9/19,45.0,44.75,Biden
Massachusetts,Emerson College,4/4/19,4/7/19,68.8,34.77,Biden
US,Harris Insights & Analytics,3/31/19,4/1/19,45.0,37.88,Biden
Nevada,Emerson College,3/28/19,3/30/19,51.7,51.22,Biden
US,Public Policy Polling,3/27/19,3/28/19,53.0,41.0,Biden
Pennsylvania,Emerson College,3/26/19,3/28/19,54.8,47.34,Biden
US,Rasmussen Reports/Pulse Opinion Research,3/17/19,3/28/19,49.0,44.0,Biden
Iowa,Emerson College,3/21/19,3/24/19,52.8,49.73,Biden
Wisconsin,Optimus,3/19/19,3/21/19,53.0,41.0,Biden
Michigan,Optimus,3/19/19,3/21/19,45.0,46.67,Trump
Pennsylvania,Optimus,3/19/19,3/21/19,50.0,44.67,Biden
US,Fox News/Beacon Research/Shaw & Co. Research,3/17/19,3/20/19,47.0,41.0,Biden
US,Emerson College,3/17/19,3/18/19,53.6,47.44,Biden
US,Harris Insights & Analytics,3/17/19,3/18/19,44.0,35.88,Biden
Wisconsin,Emerson College,3/15/19,3/17/19,52.75,47.64,Biden
US,Civiqs,3/9/19,3/12/19,48.0,43.83,Biden
US,Change Research,3/8/19,3/10/19,49.93,45.69,Biden
Michigan,Emerson College,3/7/19,3/10/19,52.75,46.84,Biden
South Carolina,Emerson College,2/28/19,3/2/19,48.1,53.99,Trump
Texas,Quinnipiac University,2/20/19,2/25/19,46.0,47.17,Trump
US,D-CYFOR,2/22/19,2/23/19,51.0,41.8,Biden
New Hampshire,Emerson College,2/21/19,2/22/19,54.8,46.14,Biden
US,Emerson College,2/14/19,2/16/19,52.75,46.94,Biden
Texas,Public Policy Polling,2/13/19,2/14/19,46.0,49.0,Trump
Arizona,OH Predictive Insights,2/12/19,2/13/19,46.0,48.25,Trump
North Carolina,Harper Polling,2/11/19,2/13/19,39.0,44.5,Trump
Iowa,Emerson College,1/30/19,2/2/19,50.6,52.2,Trump
US,Change Research,1/31/19,2/1/19,50.5,45.3,Biden
US,Optimus,1/30/19,2/1/19,47.8,42.47,Biden
Michigan,Glengariff Group,1/24/19,1/26/19,53.3,41.6,Biden
US,Public Policy Polling,1/19/19,1/21/19,53.0,41.67,Biden
North Carolina,Public Policy Polling,1/4/19,1/7/19,49.0,45.33,Biden
US,Harris Insights & Analytics,12/16/18,12/17/18,42.0,36.67,Biden
Ohio,Public Policy Polling,11/27/18,11/28/18,48.0,45.25,Biden
Utah,RMS Research,7/27/20,8/1/20,31.0,50.0,Trump
Ohio,University of Akron,6/25/20,7/15/20,46.0,42.0,Biden
Virginia,Virginia Commonwealth University,7/11/20,7/18/20,50.0,39.0,Biden
North Carolina,Cardinal Point Analysis,7/22/20,7/24/20,47.0,48.0,Trump
Arizona,Redfield & Wilton Strategies,7/19/20,7/24/20,46.0,38.0,Biden
Pennsylvania,Redfield & Wilton Strategies,7/19/20,7/24/20,48.0,41.0,Biden
Florida,Redfield & Wilton Strategies,7/19/20,7/24/20,48.0,41.0,Biden
North Carolina,Redfield & Wilton Strategies,7/19/20,7/24/20,43.0,42.0,Biden
US,Pulse Opinion Research,7/22/20,7/28/20,48.0,42.0,Biden
US,YouGov,7/27/20,7/28/20,49.0,40.0,Biden
Massachusetts,MassInc Polling Group,7/17/20,7/20/20,55.0,23.0,Biden
New Hampshire,DKC Analytics,7/7/20,7/12/20,51.0,33.0,Biden
US,The Harris Poll,7/21/20,7/23/20,55.0,45.0,Biden
US,Echelon Insights,4/18/20,7/21/20,52.0,43.0,Biden
Pennsylvania,Fox News/Beacon Research/Shaw & Co. Research,7/17/20,7/20/20,50.0,39.0,Biden
Minnesota,Fox News/Beacon Research/Shaw & Co. Research,7/17/20,7/20/20,51.0,38.0,Biden
Michigan,Fox News/Beacon Research/Shaw & Co. Research,7/17/20,7/20/20,49.0,40.0,Biden
US,Hart Research Associates,5/13/20,5/15/20,51.0,43.0,Biden
US,Global Strategy Group,6/23/20,7/1/20,50.0,39.0,Biden
US,GQR Research,7/15/20,7/19/20,55.0,44.0,Biden
Florida,St Pete Polls,7/13/20,7/14/20,50.0,44.0,Biden
US,Pulse Opinion Research,7/15/20,7/21/20,47.0,45.0,Biden
Pennsylvania,Pulse Opinion Research,7/15/20,7/16/20,51.0,46.0,Biden
Ohio,Pulse Opinion Research,7/15/20,7/16/20,50.0,46.0,Biden
North Carolina,Cardinal Point Analytics,7/13/20,7/15/20,48.0,49.0,Trump
US,ABC News/Washington Post,7/12/20,7/15/20,54.5,42.0,Biden
US,NBC News/Wall Street Journal,7/9/20,7/12/20,51.0,40.0,Biden
US,Pulse Opinion Research,7/8/20,7/14/20,47.0,44.0,Biden
US,Pulse Opinion Research,7/5/20,7/7/20,50.0,40.0,Biden
US,Opinium,6/19/20,6/25/20,52.0,40.0,Biden
US,YouGov,6/19/20,7/1/20,45.0,40.0,Biden
US,Hart Research Associates,6/22/20,6/28/20,55.0,41.0,Biden
US,The Harris Poll,6/17/20,6/18/20,56.0,44.0,Biden
US,Optimus,6/25/20,6/27/20,43.0,36.0,Biden
US,Hart Research Associates,6/19/20,6/22/20,47.0,38.0,Biden
North Carolina,NYT/Siena College,6/8/20,6/18/20,49.0,40.0,Biden
Florida,NYT/Siena College,6/8/20,6/18/20,47.0,41.0,Biden
Michigan,NYT/Siena College,6/8/20,6/17/20,47.0,36.0,Biden
Pennsylvania,NYT/Siena College,6/8/20,6/16/20,50.0,40.0,Biden
Arizona,NYT/Siena College,6/8/20,6/16/20,48.0,41.0,Biden
Wisconsin,NYT/Siena College,6/8/20,6/15/20,49.0,38.0,Biden
US,NYT/Siena College,6/17/20,6/22/20,50.0,36.0,Biden
US,Ipsos,5/18/20,5/24/20,46.0,39.0,Biden
Mississippi,Millsaps College,6/2/20,6/4/20,41.0,50.0,Trump
Michigan,TIPP,6/9/20,6/12/20,50.5,37.5,Biden
Florida,TIPP,6/9/20,6/11/20,50.5,40.0,Biden
US,NORC,5/21/20,6/5/20,40.0,32.0,Biden
US,Morning Consult,6/6/20,6/14/20,48.0,39.0,Biden
Georgia,TargetSmart/Dynata,5/21/20,5/27/20,40.0,44.0,Trump
US,Data for Progress,6/2/20,6/2/20,53.0,41.0,Biden
Tennessee,SSRS,5/2/20,5/22/20,42.0,51.0,Trump
US,NBC News/Wall Street Journal,5/28/20,6/2/20,49.0,42.0,Biden
Texas,Quinnipiac University,5/29/20,6/1/20,43.0,44.0,Trump
US,Reuters,6/1/20,6/2/20,47.0,37.0,Biden
US,TargetSmart/Dynata,5/21/20,5/27/20,43.0,40.0,Biden
US,ABC News/Washington Post,5/25/20,5/28/20,52.0,44.5,Biden
Florida,St Pete Polls,5/26/20,5/27/20,48.0,47.0,Biden
New York,Sinea College,5/17/20,5/21/20,57.0,32.0,Biden
North Carolina,Meeting Street Insights,5/9/20,5/13/20,47.0,47.0,Tie
Maryland,Gonzales Research & Media Services,5/19/20,5/23/20,59.0,35.0,Biden
US,Optimus,5/12/20,4/19/20,52.0,42.0,Biden
Michigan,Change Research,5/16/20,5/19/20,47.0,44.0,Biden
US,Pulse Opinion Research,5/18/20,5/19/20,48.0,43.0,Biden
US,The Harris Poll,5/13/20,5/14/20,53.0,47.0,Biden
Colorado,Keating Research,5/1/20,5/3/20,55.0,35.0,Biden
US,Monmouth,4/30/20,5/4/20,47.0,40.0,Biden
Colorado,Montana State University Bozeman,4/10/20,4/27/20,53.0,35.0,Biden
US,IBD/TIPP,4/26/20,4/28/20,43.0,43.0,Tie
US,Ipsos,4/26/20,4/28/20,44.0,40.0,Biden
US,Redfield & Wilton Strategies,4/23/20,4/23/20,52.0,44.0,Biden
Mississippi,Chism Strategies,4/6/20,4/9/20,38.0,49.0,Trump
US,NBC News/Wall Street Journal,4/13/20,4/15/20,49.0,42.0,Biden
US,The Harris Poll,4/14/20,4/16/20,53.5,46.5,Biden
Florida,St Pete Polls,4/14/20,4/17/20,48.3,47.5,Biden
US,Fox News/Beacon Research/Shaw & Co. Research,4/5/20,4/7/20,42.0,42.0,Tie
US,NBC News/Wall Street Journal,4/3/20,4/6/20,44.0,39.0,Biden
US,Research Co.,3/4/20,4/3/20,45.0,40.0,Biden
US,Change Research,2/4/20,4/3/20,43.0,45.0,Trump
US,The Harris Poll,3/24/20,3/26/20,55.0,45.0,Biden
US,ABC News/Washington Post,3/22/20,3/25/20,49.5,45.5,Biden
US,NBC News/Wall Street Journal,3/11/20,3/13/20,52.0,43.0,Biden
US,Pulse Opinion Research,3/5/20,3/8/20,48.0,42.0,Biden
North Dakota,DFM Research,3/3/20,3/6/20,38.0,55.0,Trump
Iowa,Selzer & Co.,3/2/20,3/6/20,41.0,51.0,Trump
Maine,Public Policy Polling,3/2/20,3/4/20,52.0,42.0,Biden
Arizona,Public Policy Polling,3/2/20,3/4/20,48.0,47.0,Biden
Mississippi,Mason-Dixon Polling & Research Inc.,2/26/20,2/28/20,41.0,56.0,Trump
US,The Harris Poll,2/26/20,2/28/20,55.0,45.0,Biden
Texas,Univision/University of Houston/Latino Decisions/North Star Opinion Research,2/21/20,2/26/20,43.0,46.0,Trump
US,NBC News/Wall Street Journal,2/14/20,2/17/20,52.0,44.0,Biden
US,ABC News/Washington Post,2/14/20,2/17/20,52.0,44.5,Biden
California,YouGov,1/2/20,2/15/20,59.9,30.4,Biden
US,CNN,1/16/20,1/19/20,53.0,44.0,Biden
US,Fox News/Beacon Research/Shaw & Co. Research,1/1/20,1/1/20,48.0,41.0,Biden
US,Quinnipiac University,1/1/20,1/1/20,51.0,42.0,Biden
