created_at,tweet_id,user.id,user.followers_count,location,text,search_term
Tue Feb 18 20:32:22 +0000 2020,1229866015531634688,1229866015531634688,935,Florida,"their you go joe.. i love this guy. snuff out racism, tired of the drama 24/7. trump and the republican party are w… https://t.co/cintonpgz0",trump
Tue Nov 28 07:26:19 +0000 2017,935409502907543555,935409502907543555,63,Nevada,proof! #trump2020 #democratsaredestroyingamerica,trump
Mon Oct 23 00:05:49 +0000 2017,922252684576608256,922252684576608256,759,Ohio,@byamaus it’s been so hard to pry myself away from the news every day. take a look at this: https://t.co/vo4vz4ocdn,trump
Mon Aug 09 00:57:01 +0000 2010,176249539,176249539,308,Florida,@adamlambert after collecting millions in ppp loans from trump?   no nasty comments from the white house.   it’s al… https://t.co/qhlcn1i2an,trump
Fri Mar 13 09:12:43 +0000 2009,24148814,24148814,1046,Tennessee,"facts.  after the separation of kids and putting them in cages story broke (which made her cry on air), she’s had h… https://t.co/zhgcsanqpx",trump
Sat Jun 13 23:17:09 +0000 2020,1271944552174227456,1271944552174227456,177,Minnesota,so pretty normal for trump.,trump
Thu Jun 25 06:58:46 +0000 2015,3255301818,3255301818,5307,New Jersey,@mercuriobryan @davidkleimann can assure you no one here cares what you think as you could’ve cared less about us w… https://t.co/tmbnumqbvr,trump
Thu Sep 06 05:16:38 +0000 2018,1037570246155141120,1037570246155141120,1110,New York,1) i don't think it's possible for the economy to go down more than it already has 2) i wish biden wanted to defund… https://t.co/dgtp43k2an,biden
Sat Sep 15 21:56:57 +0000 2007,8903952,8903952,342,Texas,all the best people,trump
Mon Aug 04 18:57:49 +0000 2008,15726120,15726120,3120,California,mary #trump says uncle #donald may have ‘undiagnosed learning disability’ in new book https://t.co/rntj9psf3d via @suntimes,trump
